F08/data/ALL0031/F0031CH2.CSV

Record Length,2.500000e+03,,   0.000054400000,   7.44000,
Sample Interval,4.000000e-08,,   0.000054440000,   7.48000,
Trigger Point,-1.360000000000e+03,,   0.000054480000,   7.44000,
,,,   0.000054520000,   7.44000,
,,,   0.000054560000,   7.44000,
,,,   0.000054600000,   7.44000,
Source,CH2,,   0.000054640000,   7.48000,
Vertical Units,V,,   0.000054680000,   7.48000,
Vertical Scale,1.000000e+00,,   0.000054720000,   7.44000,
Vertical Offset,-9.720000e+00,,   0.000054760000,   7.44000,
Horizontal Units,s,,   0.000054800000,   7.48000,
Horizontal Scale,1.000000e-05,,   0.000054840000,   7.44000,
Pt Fmt,Y,,   0.000054880000,   7.44000,
Yzero,0.000000e+00,,   0.000054920000,   7.44000,
Probe Atten,1.000000e+01,,   0.000054960000,   7.52000,
Model Number,TDS1001B,,   0.000055000000,   7.44000,
Serial Number,C052131,,   0.000055040000,   7.44000,
Firmware Version,FV:v22.01,,   0.000055080000,   7.48000,
,,,0.000055120000,   7.52000,
,,,0.000055160000,   7.48000,
,,,0.000055200000,   7.48000,
,,,0.000055240000,   7.52000,
,,,0.000055280000,   7.48000,
,,,0.000055320000,   7.48000,
,,,0.000055360000,   7.52000,
,,,0.000055400000,   7.48000,
,,,0.000055440000,   7.48000,
,,,0.000055480000,   7.48000,
,,,0.000055520000,   7.48000,
,,,0.000055560000,   7.44000,
,,,0.000055600000,   7.48000,
,,,0.000055640000,   7.48000,
,,,0.000055680000,   7.48000,
,,,0.000055720000,   7.44000,
,,,0.000055760000,   7.44000,
,,,0.000055800000,   7.48000,
,,,0.000055840000,   7.52000,
,,,0.000055880000,   7.44000,
,,,0.000055920000,   7.48000,
,,,0.000055960000,   7.48000,
,,,0.000056000000,   7.48000,
,,,0.000056040000,   7.44000,
,,,0.000056080000,   7.44000,
,,,0.000056120000,   7.48000,
,,,0.000056160000,   7.48000,
,,,0.000056200000,   7.48000,
,,,0.000056240000,   7.52000,
,,,0.000056280000,   7.60000,
,,,0.000056320000,   7.64000,
,,,0.000056360000,   7.64000,
,,,0.000056400000,   7.68000,
,,,0.000056440000,   7.76000,
,,,0.000056480000,   7.84000,
,,,0.000056520000,   8.00000,
,,,0.000056560000,   8.08000,
,,,0.000056600000,   8.24000,
,,,0.000056640000,   8.32000,
,,,0.000056680000,   8.52000,
,,,0.000056720000,   8.72000,
,,,0.000056760000,   8.88000,
,,,0.000056800000,   9.12000,
,,,0.000056840000,   9.20000,
,,,0.000056880000,   9.36000,
,,,0.000056920000,   9.44000,
,,,0.000056960000,   9.56000,
,,,0.000057000000,   9.64000,
,,,0.000057040000,   9.68000,
,,,0.000057080000,   9.84000,
,,,0.000057120000,   9.88000,
,,,0.000057160000,  10.00000,
,,,0.000057200000,  10.08000,
,,,0.000057240000,  10.16000,
,,,0.000057280000,  10.28000,
,,,0.000057320000,  10.32000,
,,,0.000057360000,  10.36000,
,,,0.000057400000,  10.48000,
,,,0.000057440000,  10.52000,
,,,0.000057480000,  10.60000,
,,,0.000057520000,  10.64000,
,,,0.000057560000,  10.76000,
,,,0.000057600000,  10.72000,
,,,0.000057640000,  10.76000,
,,,0.000057680000,  10.84000,
,,,0.000057720000,  10.88000,
,,,0.000057760000,  10.92000,
,,,0.000057800000,  11.00000,
,,,0.000057840000,  11.00000,
,,,0.000057880000,  11.08000,
,,,0.000057920000,  11.16000,
,,,0.000057960000,  11.12000,
,,,0.000058000000,  11.20000,
,,,0.000058040000,  11.24000,
,,,0.000058080000,  11.24000,
,,,0.000058120000,  11.32000,
,,,0.000058160000,  11.32000,
,,,0.000058200000,  11.40000,
,,,0.000058240000,  11.36000,
,,,0.000058280000,  11.40000,
,,,0.000058320000,  11.48000,
,,,0.000058360000,  11.48000,
,,,0.000058400000,  11.56000,
,,,0.000058440000,  11.60000,
,,,0.000058480000,  11.64000,
,,,0.000058520000,  11.64000,
,,,0.000058560000,  11.60000,
,,,0.000058600000,  11.68000,
,,,0.000058640000,  11.72000,
,,,0.000058680000,  11.72000,
,,,0.000058720000,  11.72000,
,,,0.000058760000,  11.76000,
,,,0.000058800000,  11.80000,
,,,0.000058840000,  11.84000,
,,,0.000058880000,  11.84000,
,,,0.000058920000,  11.88000,
,,,0.000058960000,  11.88000,
,,,0.000059000000,  11.92000,
,,,0.000059040000,  11.96000,
,,,0.000059080000,  11.96000,
,,,0.000059120000,  12.00000,
,,,0.000059160000,  12.00000,
,,,0.000059200000,  12.00000,
,,,0.000059240000,  12.04000,
,,,0.000059280000,  12.08000,
,,,0.000059320000,  12.08000,
,,,0.000059360000,  12.08000,
,,,0.000059400000,  12.12000,
,,,0.000059440000,  12.12000,
,,,0.000059480000,  12.12000,
,,,0.000059520000,  12.12000,
,,,0.000059560000,  12.16000,
,,,0.000059600000,  12.20000,
,,,0.000059640000,  12.20000,
,,,0.000059680000,  12.20000,
,,,0.000059720000,  12.24000,
,,,0.000059760000,  12.24000,
,,,0.000059800000,  12.28000,
,,,0.000059840000,  12.24000,
,,,0.000059880000,  12.24000,
,,,0.000059920000,  12.24000,
,,,0.000059960000,  12.32000,
,,,0.000060000000,  12.28000,
,,,0.000060040000,  12.28000,
,,,0.000060080000,  12.28000,
,,,0.000060120000,  12.32000,
,,,0.000060160000,  12.36000,
,,,0.000060200000,  12.36000,
,,,0.000060240000,  12.32000,
,,,0.000060280000,  12.40000,
,,,0.000060320000,  12.36000,
,,,0.000060360000,  12.36000,
,,,0.000060400000,  12.36000,
,,,0.000060440000,  12.44000,
,,,0.000060480000,  12.40000,
,,,0.000060520000,  12.48000,
,,,0.000060560000,  12.40000,
,,,0.000060600000,  12.48000,
,,,0.000060640000,  12.44000,
,,,0.000060680000,  12.40000,
,,,0.000060720000,  12.44000,
,,,0.000060760000,  12.48000,
,,,0.000060800000,  12.48000,
,,,0.000060840000,  12.48000,
,,,0.000060880000,  12.48000,
,,,0.000060920000,  12.48000,
,,,0.000060960000,  12.52000,
,,,0.000061000000,  12.44000,
,,,0.000061040000,  12.48000,
,,,0.000061080000,  12.52000,
,,,0.000061120000,  12.48000,
,,,0.000061160000,  12.52000,
,,,0.000061200000,  12.48000,
,,,0.000061240000,  12.52000,
,,,0.000061280000,  12.48000,
,,,0.000061320000,  12.52000,
,,,0.000061360000,  12.52000,
,,,0.000061400000,  12.48000,
,,,0.000061440000,  12.52000,
,,,0.000061480000,  12.52000,
,,,0.000061520000,  12.56000,
,,,0.000061560000,  12.52000,
,,,0.000061600000,  12.56000,
,,,0.000061640000,  12.56000,
,,,0.000061680000,  12.56000,
,,,0.000061720000,  12.52000,
,,,0.000061760000,  12.56000,
,,,0.000061800000,  12.52000,
,,,0.000061840000,  12.56000,
,,,0.000061880000,  12.56000,
,,,0.000061920000,  12.80000,
,,,0.000061960000,  12.72000,
,,,0.000062000000,  12.60000,
,,,0.000062040000,  12.68000,
,,,0.000062080000,  12.52000,
,,,0.000062120000,  12.52000,
,,,0.000062160000,  12.56000,
,,,0.000062200000,  12.52000,
,,,0.000062240000,  12.44000,
,,,0.000062280000,  12.52000,
,,,0.000062320000,  12.48000,
,,,0.000062360000,  12.48000,
,,,0.000062400000,  12.52000,
,,,0.000062440000,  12.52000,
,,,0.000062480000,  12.44000,
,,,0.000062520000,  12.52000,
,,,0.000062560000,  12.48000,
,,,0.000062600000,  12.52000,
,,,0.000062640000,  12.52000,
,,,0.000062680000,  12.52000,
,,,0.000062720000,  12.48000,
,,,0.000062760000,  12.48000,
,,,0.000062800000,  12.48000,
,,,0.000062840000,  12.44000,
,,,0.000062880000,  12.48000,
,,,0.000062920000,  12.48000,
,,,0.000062960000,  12.48000,
,,,0.000063000000,  12.48000,
,,,0.000063040000,  12.44000,
,,,0.000063080000,  12.40000,
,,,0.000063120000,  12.52000,
,,,0.000063160000,  12.44000,
,,,0.000063200000,  12.40000,
,,,0.000063240000,  12.40000,
,,,0.000063280000,  12.44000,
,,,0.000063320000,  12.44000,
,,,0.000063360000,  12.48000,
,,,0.000063400000,  12.44000,
,,,0.000063440000,  12.40000,
,,,0.000063480000,  12.40000,
,,,0.000063520000,  12.44000,
,,,0.000063560000,  12.36000,
,,,0.000063600000,  12.40000,
,,,0.000063640000,  12.40000,
,,,0.000063680000,  12.32000,
,,,0.000063720000,  12.36000,
,,,0.000063760000,  12.44000,
,,,0.000063800000,  12.32000,
,,,0.000063840000,  12.32000,
,,,0.000063880000,  12.32000,
,,,0.000063920000,  12.36000,
,,,0.000063960000,  12.32000,
,,,0.000064000000,  12.32000,
,,,0.000064040000,  12.32000,
,,,0.000064080000,  12.36000,
,,,0.000064120000,  12.28000,
,,,0.000064160000,  12.32000,
,,,0.000064200000,  12.28000,
,,,0.000064240000,  12.32000,
,,,0.000064280000,  12.28000,
,,,0.000064320000,  12.24000,
,,,0.000064360000,  12.24000,
,,,0.000064400000,  12.24000,
,,,0.000064440000,  12.24000,
,,,0.000064480000,  12.28000,
,,,0.000064520000,  12.20000,
,,,0.000064560000,  12.20000,
,,,0.000064600000,  12.24000,
,,,0.000064640000,  12.24000,
,,,0.000064680000,  12.20000,
,,,0.000064720000,  12.20000,
,,,0.000064760000,  12.20000,
,,,0.000064800000,  12.24000,
,,,0.000064840000,  12.16000,
,,,0.000064880000,  12.16000,
,,,0.000064920000,  12.16000,
,,,0.000064960000,  12.12000,
,,,0.000065000000,  12.12000,
,,,0.000065040000,  12.16000,
,,,0.000065080000,  12.16000,
,,,0.000065120000,  12.12000,
,,,0.000065160000,  12.12000,
,,,0.000065200000,  12.08000,
,,,0.000065240000,  12.08000,
,,,0.000065280000,  12.12000,
,,,0.000065320000,  12.08000,
,,,0.000065360000,  12.08000,
,,,0.000065400000,  12.04000,
,,,0.000065440000,  12.04000,
,,,0.000065480000,  12.08000,
,,,0.000065520000,  12.00000,
,,,0.000065560000,  12.04000,
,,,0.000065600000,  12.04000,
,,,0.000065640000,  12.00000,
,,,0.000065680000,  12.00000,
,,,0.000065720000,  11.96000,
,,,0.000065760000,  11.96000,
,,,0.000065800000,  11.96000,
,,,0.000065840000,  11.96000,
,,,0.000065880000,  11.96000,
,,,0.000065920000,  11.96000,
,,,0.000065960000,  11.92000,
,,,0.000066000000,  11.92000,
,,,0.000066040000,  11.92000,
,,,0.000066080000,  11.88000,
,,,0.000066120000,  11.92000,
,,,0.000066160000,  11.88000,
,,,0.000066200000,  11.84000,
,,,0.000066240000,  11.88000,
,,,0.000066280000,  11.80000,
,,,0.000066320000,  11.88000,
,,,0.000066360000,  11.80000,
,,,0.000066400000,  11.88000,
,,,0.000066440000,  11.80000,
,,,0.000066480000,  11.76000,
,,,0.000066520000,  11.80000,
,,,0.000066560000,  11.76000,
,,,0.000066600000,  11.76000,
,,,0.000066640000,  11.72000,
,,,0.000066680000,  11.76000,
,,,0.000066720000,  11.72000,
,,,0.000066760000,  11.76000,
,,,0.000066800000,  11.72000,
,,,0.000066840000,  11.72000,
,,,0.000066880000,  11.72000,
,,,0.000066920000,  11.72000,
,,,0.000066960000,  11.64000,
,,,0.000067000000,  11.64000,
,,,0.000067040000,  11.64000,
,,,0.000067080000,  11.68000,
,,,0.000067120000,  11.64000,
,,,0.000067160000,  11.64000,
,,,0.000067200000,  11.56000,
,,,0.000067240000,  11.56000,
,,,0.000067280000,  11.60000,
,,,0.000067320000,  11.56000,
,,,0.000067360000,  11.56000,
,,,0.000067400000,  11.56000,
,,,0.000067440000,  11.56000,
,,,0.000067480000,  11.56000,
,,,0.000067520000,  11.48000,
,,,0.000067560000,  11.52000,
,,,0.000067600000,  11.48000,
,,,0.000067640000,  11.48000,
,,,0.000067680000,  11.44000,
,,,0.000067720000,  11.56000,
,,,0.000067760000,  11.48000,
,,,0.000067800000,  11.44000,
,,,0.000067840000,  11.44000,
,,,0.000067880000,  11.40000,
,,,0.000067920000,  11.40000,
,,,0.000067960000,  11.40000,
,,,0.000068000000,  11.44000,
,,,0.000068040000,  11.36000,
,,,0.000068080000,  11.32000,
,,,0.000068120000,  11.36000,
,,,0.000068160000,  11.36000,
,,,0.000068200000,  11.36000,
,,,0.000068240000,  11.28000,
,,,0.000068280000,  11.28000,
,,,0.000068320000,  11.32000,
,,,0.000068360000,  11.28000,
,,,0.000068400000,  11.24000,
,,,0.000068440000,  11.28000,
,,,0.000068480000,  11.28000,
,,,0.000068520000,  11.24000,
,,,0.000068560000,  11.24000,
,,,0.000068600000,  11.24000,
,,,0.000068640000,  11.20000,
,,,0.000068680000,  11.20000,
,,,0.000068720000,  11.16000,
,,,0.000068760000,  11.16000,
,,,0.000068800000,  11.16000,
,,,0.000068840000,  11.12000,
,,,0.000068880000,  11.16000,
,,,0.000068920000,  11.08000,
,,,0.000068960000,  11.12000,
,,,0.000069000000,  11.12000,
,,,0.000069040000,  11.12000,
,,,0.000069080000,  11.08000,
,,,0.000069120000,  11.08000,
,,,0.000069160000,  11.08000,
,,,0.000069200000,  11.04000,
,,,0.000069240000,  11.00000,
,,,0.000069280000,  10.96000,
,,,0.000069320000,  11.00000,
,,,0.000069360000,  11.00000,
,,,0.000069400000,  10.96000,
,,,0.000069440000,  11.00000,
,,,0.000069480000,  10.92000,
,,,0.000069520000,  10.96000,
,,,0.000069560000,  10.96000,
,,,0.000069600000,  10.88000,
,,,0.000069640000,  10.92000,
,,,0.000069680000,  10.92000,
,,,0.000069720000,  10.88000,
,,,0.000069760000,  10.88000,
,,,0.000069800000,  10.88000,
,,,0.000069840000,  10.84000,
,,,0.000069880000,  10.88000,
,,,0.000069920000,  10.80000,
,,,0.000069960000,  10.80000,
,,,0.000070000000,  10.88000,
,,,0.000070040000,  10.84000,
,,,0.000070080000,  10.80000,
,,,0.000070120000,  10.80000,
,,,0.000070160000,  10.80000,
,,,0.000070200000,  10.80000,
,,,0.000070240000,  10.72000,
,,,0.000070280000,  10.76000,
,,,0.000070320000,  10.68000,
,,,0.000070360000,  10.72000,
,,,0.000070400000,  10.68000,
,,,0.000070440000,  10.68000,
,,,0.000070480000,  10.68000,
,,,0.000070520000,  10.68000,
,,,0.000070560000,  10.64000,
,,,0.000070600000,  10.68000,
,,,0.000070640000,  10.64000,
,,,0.000070680000,  10.64000,
,,,0.000070720000,  10.64000,
,,,0.000070760000,  10.56000,
,,,0.000070800000,  10.60000,
,,,0.000070840000,  10.60000,
,,,0.000070880000,  10.56000,
,,,0.000070920000,  10.60000,
,,,0.000070960000,  10.56000,
,,,0.000071000000,  10.52000,
,,,0.000071040000,  10.52000,
,,,0.000071080000,  10.56000,
,,,0.000071120000,  10.48000,
,,,0.000071160000,  10.48000,
,,,0.000071200000,  10.44000,
,,,0.000071240000,  10.44000,
,,,0.000071280000,  10.44000,
,,,0.000071320000,  10.44000,
,,,0.000071360000,  10.40000,
,,,0.000071400000,  10.40000,
,,,0.000071440000,  10.40000,
,,,0.000071480000,  10.36000,
,,,0.000071520000,  10.36000,
,,,0.000071560000,  10.36000,
,,,0.000071600000,  10.32000,
,,,0.000071640000,  10.36000,
,,,0.000071680000,  10.36000,
,,,0.000071720000,  10.28000,
,,,0.000071760000,  10.28000,
,,,0.000071800000,  10.28000,
,,,0.000071840000,  10.32000,
,,,0.000071880000,  10.28000,
,,,0.000071920000,  10.24000,
,,,0.000071960000,  10.28000,
,,,0.000072000000,  10.24000,
,,,0.000072040000,  10.20000,
,,,0.000072080000,  10.20000,
,,,0.000072120000,  10.20000,
,,,0.000072160000,  10.24000,
,,,0.000072200000,  10.16000,
,,,0.000072240000,  10.12000,
,,,0.000072280000,  10.16000,
,,,0.000072320000,  10.16000,
,,,0.000072360000,  10.08000,
,,,0.000072400000,  10.16000,
,,,0.000072440000,  10.08000,
,,,0.000072480000,  10.08000,
,,,0.000072520000,  10.08000,
,,,0.000072560000,  10.08000,
,,,0.000072600000,  10.04000,
,,,0.000072640000,  10.04000,
,,,0.000072680000,  10.04000,
,,,0.000072720000,  10.04000,
,,,0.000072760000,  10.04000,
,,,0.000072800000,  10.04000,
,,,0.000072840000,  10.00000,
,,,0.000072880000,   9.96000,
,,,0.000072920000,   9.96000,
,,,0.000072960000,   9.92000,
,,,0.000073000000,   9.96000,
,,,0.000073040000,   9.92000,
,,,0.000073080000,   9.96000,
,,,0.000073120000,   9.88000,
,,,0.000073160000,   9.84000,
,,,0.000073200000,   9.92000,
,,,0.000073240000,   9.84000,
,,,0.000073280000,   9.88000,
,,,0.000073320000,   9.84000,
,,,0.000073360000,   9.84000,
,,,0.000073400000,   9.80000,
,,,0.000073440000,   9.80000,
,,,0.000073480000,   9.80000,
,,,0.000073520000,   9.80000,
,,,0.000073560000,   9.84000,
,,,0.000073600000,   9.76000,
,,,0.000073640000,   9.76000,
,,,0.000073680000,   9.76000,
,,,0.000073720000,   9.76000,
,,,0.000073760000,   9.72000,
,,,0.000073800000,   9.68000,
,,,0.000073840000,   9.72000,
,,,0.000073880000,   9.72000,
,,,0.000073920000,   9.64000,
,,,0.000073960000,   9.72000,
,,,0.000074000000,   9.64000,
,,,0.000074040000,   9.68000,
,,,0.000074080000,   9.60000,
,,,0.000074120000,   9.64000,
,,,0.000074160000,   9.64000,
,,,0.000074200000,   9.60000,
,,,0.000074240000,   9.64000,
,,,0.000074280000,   9.60000,
,,,0.000074320000,   9.60000,
,,,0.000074360000,   9.56000,
,,,0.000074400000,   9.56000,
,,,0.000074440000,   9.56000,
,,,0.000074480000,   9.52000,
,,,0.000074520000,   9.52000,
,,,0.000074560000,   9.52000,
,,,0.000074600000,   9.52000,
,,,0.000074640000,   9.48000,
,,,0.000074680000,   9.48000,
,,,0.000074720000,   9.48000,
,,,0.000074760000,   9.44000,
,,,0.000074800000,   9.44000,
,,,0.000074840000,   9.48000,
,,,0.000074880000,   9.44000,
,,,0.000074920000,   9.44000,
,,,0.000074960000,   9.40000,
,,,0.000075000000,   9.44000,
,,,0.000075040000,   9.40000,
,,,0.000075080000,   9.32000,
,,,0.000075120000,   9.32000,
,,,0.000075160000,   9.36000,
,,,0.000075200000,   9.36000,
,,,0.000075240000,   9.32000,
,,,0.000075280000,   9.32000,
,,,0.000075320000,   9.28000,
,,,0.000075360000,   9.28000,
,,,0.000075400000,   9.28000,
,,,0.000075440000,   9.24000,
,,,0.000075480000,   9.28000,
,,,0.000075520000,   9.24000,
,,,0.000075560000,   9.24000,
,,,0.000075600000,   9.24000,
,,,0.000075640000,   9.28000,
,,,0.000075680000,   9.20000,
,,,0.000075720000,   9.24000,
,,,0.000075760000,   9.24000,
,,,0.000075800000,   9.20000,
,,,0.000075840000,   9.12000,
,,,0.000075880000,   9.16000,
,,,0.000075920000,   9.12000,
,,,0.000075960000,   9.16000,
,,,0.000076000000,   9.08000,
,,,0.000076040000,   9.12000,
,,,0.000076080000,   9.12000,
,,,0.000076120000,   9.08000,
,,,0.000076160000,   9.08000,
,,,0.000076200000,   9.08000,
,,,0.000076240000,   9.12000,
,,,0.000076280000,   9.04000,
,,,0.000076320000,   9.00000,
,,,0.000076360000,   9.04000,
,,,0.000076400000,   9.04000,
,,,0.000076440000,   9.00000,
,,,0.000076480000,   9.04000,
,,,0.000076520000,   8.96000,
,,,0.000076560000,   8.96000,
,,,0.000076600000,   8.96000,
,,,0.000076640000,   8.96000,
,,,0.000076680000,   9.00000,
,,,0.000076720000,   8.96000,
,,,0.000076760000,   8.92000,
,,,0.000076800000,   8.92000,
,,,0.000076840000,   8.88000,
,,,0.000076880000,   8.92000,
,,,0.000076920000,   8.92000,
,,,0.000076960000,   8.92000,
,,,0.000077000000,   8.84000,
,,,0.000077040000,   8.84000,
,,,0.000077080000,   8.80000,
,,,0.000077120000,   8.80000,
,,,0.000077160000,   8.80000,
,,,0.000077200000,   8.88000,
,,,0.000077240000,   8.84000,
,,,0.000077280000,   8.80000,
,,,0.000077320000,   8.80000,
,,,0.000077360000,   8.80000,
,,,0.000077400000,   8.76000,
,,,0.000077440000,   8.76000,
,,,0.000077480000,   8.80000,
,,,0.000077520000,   8.76000,
,,,0.000077560000,   8.72000,
,,,0.000077600000,   8.72000,
,,,0.000077640000,   8.68000,
,,,0.000077680000,   8.68000,
,,,0.000077720000,   8.68000,
,,,0.000077760000,   8.68000,
,,,0.000077800000,   8.68000,
,,,0.000077840000,   8.68000,
,,,0.000077880000,   8.64000,
,,,0.000077920000,   8.68000,
,,,0.000077960000,   8.60000,
,,,0.000078000000,   8.60000,
,,,0.000078040000,   8.60000,
,,,0.000078080000,   8.60000,
,,,0.000078120000,   8.60000,
,,,0.000078160000,   8.56000,
,,,0.000078200000,   8.56000,
,,,0.000078240000,   8.56000,
,,,0.000078280000,   8.56000,
,,,0.000078320000,   8.52000,
,,,0.000078360000,   8.52000,
,,,0.000078400000,   8.48000,
,,,0.000078440000,   8.52000,
,,,0.000078480000,   8.52000,
,,,0.000078520000,   8.48000,
,,,0.000078560000,   8.52000,
,,,0.000078600000,   8.48000,
,,,0.000078640000,   8.52000,
,,,0.000078680000,   8.48000,
,,,0.000078720000,   8.48000,
,,,0.000078760000,   8.40000,
,,,0.000078800000,   8.44000,
,,,0.000078840000,   8.44000,
,,,0.000078880000,   8.44000,
,,,0.000078920000,   8.40000,
,,,0.000078960000,   8.40000,
,,,0.000079000000,   8.36000,
,,,0.000079040000,   8.36000,
,,,0.000079080000,   8.36000,
,,,0.000079120000,   8.40000,
,,,0.000079160000,   8.36000,
,,,0.000079200000,   8.40000,
,,,0.000079240000,   8.36000,
,,,0.000079280000,   8.32000,
,,,0.000079320000,   8.28000,
,,,0.000079360000,   8.36000,
,,,0.000079400000,   8.32000,
,,,0.000079440000,   8.32000,
,,,0.000079480000,   8.28000,
,,,0.000079520000,   8.32000,
,,,0.000079560000,   8.28000,
,,,0.000079600000,   8.28000,
,,,0.000079640000,   8.24000,
,,,0.000079680000,   8.24000,
,,,0.000079720000,   8.24000,
,,,0.000079760000,   8.20000,
,,,0.000079800000,   8.20000,
,,,0.000079840000,   8.16000,
,,,0.000079880000,   8.20000,
,,,0.000079920000,   8.20000,
,,,0.000079960000,   8.16000,
,,,0.000080000000,   8.20000,
,,,0.000080040000,   8.12000,
,,,0.000080080000,   8.16000,
,,,0.000080120000,   8.16000,
,,,0.000080160000,   8.12000,
,,,0.000080200000,   8.12000,
,,,0.000080240000,   8.08000,
,,,0.000080280000,   8.08000,
,,,0.000080320000,   8.12000,
,,,0.000080360000,   8.12000,
,,,0.000080400000,   8.12000,
,,,0.000080440000,   8.08000,
,,,0.000080480000,   8.08000,
,,,0.000080520000,   8.04000,
