F08/data/ALL0029/F0029CH2.CSV

Record Length,2.500000e+03,,   0.000051600000,   7.48000,
Sample Interval,2.000000e-08,,   0.000051620000,   7.56000,
Trigger Point,-2.580000000000e+03,,   0.000051640000,   7.48000,
,,,   0.000051660000,   7.52000,
,,,   0.000051680000,   7.52000,
,,,   0.000051700000,   7.44000,
Source,CH2,,   0.000051720000,   7.52000,
Vertical Units,V,,   0.000051740000,   7.52000,
Vertical Scale,1.000000e+00,,   0.000051760000,   7.48000,
Vertical Offset,-9.720000e+00,,   0.000051780000,   7.48000,
Horizontal Units,s,,   0.000051800000,   7.52000,
Horizontal Scale,5.000000e-06,,   0.000051820000,   7.56000,
Pt Fmt,Y,,   0.000051840000,   7.52000,
Yzero,0.000000e+00,,   0.000051860000,   7.52000,
Probe Atten,1.000000e+01,,   0.000051880000,   7.52000,
Model Number,TDS1001B,,   0.000051900000,   7.52000,
Serial Number,C052131,,   0.000051920000,   7.48000,
Firmware Version,FV:v22.01,,   0.000051940000,   7.48000,
,,,0.000051960000,   7.52000,
,,,0.000051980000,   7.48000,
,,,0.000052000000,   7.48000,
,,,0.000052020000,   7.52000,
,,,0.000052040000,   7.52000,
,,,0.000052060000,   7.56000,
,,,0.000052080000,   7.52000,
,,,0.000052100000,   7.48000,
,,,0.000052120000,   7.48000,
,,,0.000052140000,   7.56000,
,,,0.000052160000,   7.52000,
,,,0.000052180000,   7.48000,
,,,0.000052200000,   7.48000,
,,,0.000052220000,   7.48000,
,,,0.000052240000,   7.52000,
,,,0.000052260000,   7.52000,
,,,0.000052280000,   7.52000,
,,,0.000052300000,   7.44000,
,,,0.000052320000,   7.52000,
,,,0.000052340000,   7.52000,
,,,0.000052360000,   7.52000,
,,,0.000052380000,   7.56000,
,,,0.000052400000,   7.48000,
,,,0.000052420000,   7.48000,
,,,0.000052440000,   7.52000,
,,,0.000052460000,   7.52000,
,,,0.000052480000,   7.52000,
,,,0.000052500000,   7.52000,
,,,0.000052520000,   7.48000,
,,,0.000052540000,   7.48000,
,,,0.000052560000,   7.52000,
,,,0.000052580000,   7.52000,
,,,0.000052600000,   7.52000,
,,,0.000052620000,   7.52000,
,,,0.000052640000,   7.48000,
,,,0.000052660000,   7.48000,
,,,0.000052680000,   7.48000,
,,,0.000052700000,   7.52000,
,,,0.000052720000,   7.56000,
,,,0.000052740000,   7.52000,
,,,0.000052760000,   7.52000,
,,,0.000052780000,   7.52000,
,,,0.000052800000,   7.48000,
,,,0.000052820000,   7.56000,
,,,0.000052840000,   7.48000,
,,,0.000052860000,   7.52000,
,,,0.000052880000,   7.48000,
,,,0.000052900000,   7.52000,
,,,0.000052920000,   7.48000,
,,,0.000052940000,   7.56000,
,,,0.000052960000,   7.48000,
,,,0.000052980000,   7.48000,
,,,0.000053000000,   7.56000,
,,,0.000053020000,   7.52000,
,,,0.000053040000,   7.52000,
,,,0.000053060000,   7.56000,
,,,0.000053080000,   7.52000,
,,,0.000053100000,   7.52000,
,,,0.000053120000,   7.56000,
,,,0.000053140000,   7.52000,
,,,0.000053160000,   7.52000,
,,,0.000053180000,   7.52000,
,,,0.000053200000,   7.52000,
,,,0.000053220000,   7.48000,
,,,0.000053240000,   7.48000,
,,,0.000053260000,   7.56000,
,,,0.000053280000,   7.52000,
,,,0.000053300000,   7.52000,
,,,0.000053320000,   7.52000,
,,,0.000053340000,   7.56000,
,,,0.000053360000,   7.52000,
,,,0.000053380000,   7.52000,
,,,0.000053400000,   7.52000,
,,,0.000053420000,   7.52000,
,,,0.000053440000,   7.52000,
,,,0.000053460000,   7.52000,
,,,0.000053480000,   7.52000,
,,,0.000053500000,   7.52000,
,,,0.000053520000,   7.52000,
,,,0.000053540000,   7.52000,
,,,0.000053560000,   7.52000,
,,,0.000053580000,   7.52000,
,,,0.000053600000,   7.52000,
,,,0.000053620000,   7.52000,
,,,0.000053640000,   7.52000,
,,,0.000053660000,   7.52000,
,,,0.000053680000,   7.52000,
,,,0.000053700000,   7.56000,
,,,0.000053720000,   7.56000,
,,,0.000053740000,   7.52000,
,,,0.000053760000,   7.56000,
,,,0.000053780000,   7.52000,
,,,0.000053800000,   7.52000,
,,,0.000053820000,   7.56000,
,,,0.000053840000,   7.52000,
,,,0.000053860000,   7.56000,
,,,0.000053880000,   7.52000,
,,,0.000053900000,   7.52000,
,,,0.000053920000,   7.52000,
,,,0.000053940000,   7.56000,
,,,0.000053960000,   7.52000,
,,,0.000053980000,   7.48000,
,,,0.000054000000,   7.52000,
,,,0.000054020000,   7.56000,
,,,0.000054040000,   7.52000,
,,,0.000054060000,   7.56000,
,,,0.000054080000,   7.56000,
,,,0.000054100000,   7.52000,
,,,0.000054120000,   7.52000,
,,,0.000054140000,   7.56000,
,,,0.000054160000,   7.52000,
,,,0.000054180000,   7.56000,
,,,0.000054200000,   7.52000,
,,,0.000054220000,   7.52000,
,,,0.000054240000,   7.52000,
,,,0.000054260000,   7.52000,
,,,0.000054280000,   7.52000,
,,,0.000054300000,   7.56000,
,,,0.000054320000,   7.52000,
,,,0.000054340000,   7.60000,
,,,0.000054360000,   7.60000,
,,,0.000054380000,   7.52000,
,,,0.000054400000,   7.48000,
,,,0.000054420000,   7.52000,
,,,0.000054440000,   7.56000,
,,,0.000054460000,   7.52000,
,,,0.000054480000,   7.56000,
,,,0.000054500000,   7.48000,
,,,0.000054520000,   7.48000,
,,,0.000054540000,   7.56000,
,,,0.000054560000,   7.56000,
,,,0.000054580000,   7.56000,
,,,0.000054600000,   7.64000,
,,,0.000054620000,   7.20000,
,,,0.000054640000,   7.48000,
,,,0.000054660000,   7.24000,
,,,0.000054680000,   7.48000,
,,,0.000054700000,   7.60000,
,,,0.000054720000,   7.60000,
,,,0.000054740000,   7.52000,
,,,0.000054760000,   7.56000,
,,,0.000054780000,   7.56000,
,,,0.000054800000,   7.52000,
,,,0.000054820000,   7.52000,
,,,0.000054840000,   7.56000,
,,,0.000054860000,   7.52000,
,,,0.000054880000,   7.60000,
,,,0.000054900000,   7.48000,
,,,0.000054920000,   7.60000,
,,,0.000054940000,   7.56000,
,,,0.000054960000,   7.56000,
,,,0.000054980000,   7.56000,
,,,0.000055000000,   7.56000,
,,,0.000055020000,   7.56000,
,,,0.000055040000,   7.56000,
,,,0.000055060000,   7.52000,
,,,0.000055080000,   7.52000,
,,,0.000055100000,   7.60000,
,,,0.000055120000,   7.56000,
,,,0.000055140000,   7.52000,
,,,0.000055160000,   7.56000,
,,,0.000055180000,   7.56000,
,,,0.000055200000,   7.56000,
,,,0.000055220000,   7.52000,
,,,0.000055240000,   7.56000,
,,,0.000055260000,   7.56000,
,,,0.000055280000,   7.52000,
,,,0.000055300000,   7.52000,
,,,0.000055320000,   7.52000,
,,,0.000055340000,   7.52000,
,,,0.000055360000,   7.52000,
,,,0.000055380000,   7.56000,
,,,0.000055400000,   7.52000,
,,,0.000055420000,   7.48000,
,,,0.000055440000,   7.52000,
,,,0.000055460000,   7.52000,
,,,0.000055480000,   7.48000,
,,,0.000055500000,   7.52000,
,,,0.000055520000,   7.48000,
,,,0.000055540000,   7.48000,
,,,0.000055560000,   7.48000,
,,,0.000055580000,   7.52000,
,,,0.000055600000,   7.52000,
,,,0.000055620000,   7.48000,
,,,0.000055640000,   7.52000,
,,,0.000055660000,   7.48000,
,,,0.000055680000,   7.52000,
,,,0.000055700000,   7.56000,
,,,0.000055720000,   7.52000,
,,,0.000055740000,   7.56000,
,,,0.000055760000,   7.52000,
,,,0.000055780000,   7.48000,
,,,0.000055800000,   7.48000,
,,,0.000055820000,   7.48000,
,,,0.000055840000,   7.48000,
,,,0.000055860000,   7.48000,
,,,0.000055880000,   7.44000,
,,,0.000055900000,   7.48000,
,,,0.000055920000,   7.52000,
,,,0.000055940000,   7.48000,
,,,0.000055960000,   7.56000,
,,,0.000055980000,   7.52000,
,,,0.000056000000,   7.52000,
,,,0.000056020000,   7.60000,
,,,0.000056040000,   7.64000,
,,,0.000056060000,   7.60000,
,,,0.000056080000,   7.64000,
,,,0.000056100000,   7.68000,
,,,0.000056120000,   7.68000,
,,,0.000056140000,   7.76000,
,,,0.000056160000,   7.76000,
,,,0.000056180000,   7.84000,
,,,0.000056200000,   7.88000,
,,,0.000056220000,   7.88000,
,,,0.000056240000,   7.92000,
,,,0.000056260000,   7.96000,
,,,0.000056280000,   8.08000,
,,,0.000056300000,   8.16000,
,,,0.000056320000,   8.20000,
,,,0.000056340000,   8.28000,
,,,0.000056360000,   8.28000,
,,,0.000056380000,   8.36000,
,,,0.000056400000,   8.40000,
,,,0.000056420000,   8.56000,
,,,0.000056440000,   8.60000,
,,,0.000056460000,   8.64000,
,,,0.000056480000,   8.72000,
,,,0.000056500000,   8.80000,
,,,0.000056520000,   8.92000,
,,,0.000056540000,   8.96000,
,,,0.000056560000,   9.04000,
,,,0.000056580000,   9.08000,
,,,0.000056600000,   9.16000,
,,,0.000056620000,   9.28000,
,,,0.000056640000,   9.32000,
,,,0.000056660000,   9.40000,
,,,0.000056680000,   9.40000,
,,,0.000056700000,   9.48000,
,,,0.000056720000,   9.56000,
,,,0.000056740000,   9.60000,
,,,0.000056760000,   9.64000,
,,,0.000056780000,   9.68000,
,,,0.000056800000,   9.72000,
,,,0.000056820000,   9.72000,
,,,0.000056840000,   9.76000,
,,,0.000056860000,   9.84000,
,,,0.000056880000,   9.84000,
,,,0.000056900000,   9.92000,
,,,0.000056920000,   9.92000,
,,,0.000056940000,  10.00000,
,,,0.000056960000,  10.04000,
,,,0.000056980000,  10.12000,
,,,0.000057000000,  10.12000,
,,,0.000057020000,  10.12000,
,,,0.000057040000,  10.20000,
,,,0.000057060000,  10.20000,
,,,0.000057080000,  10.28000,
,,,0.000057100000,  10.32000,
,,,0.000057120000,  10.32000,
,,,0.000057140000,  10.40000,
,,,0.000057160000,  10.44000,
,,,0.000057180000,  10.44000,
,,,0.000057200000,  10.44000,
,,,0.000057220000,  10.52000,
,,,0.000057240000,  10.48000,
,,,0.000057260000,  10.56000,
,,,0.000057280000,  10.60000,
,,,0.000057300000,  10.60000,
,,,0.000057320000,  10.64000,
,,,0.000057340000,  10.64000,
,,,0.000057360000,  10.68000,
,,,0.000057380000,  10.68000,
,,,0.000057400000,  10.68000,
,,,0.000057420000,  10.76000,
,,,0.000057440000,  10.72000,
,,,0.000057460000,  10.72000,
,,,0.000057480000,  10.80000,
,,,0.000057500000,  10.84000,
,,,0.000057520000,  10.88000,
,,,0.000057540000,  10.84000,
,,,0.000057560000,  10.88000,
,,,0.000057580000,  10.96000,
,,,0.000057600000,  10.96000,
,,,0.000057620000,  10.96000,
,,,0.000057640000,  10.96000,
,,,0.000057660000,  11.00000,
,,,0.000057680000,  11.00000,
,,,0.000057700000,  11.00000,
,,,0.000057720000,  11.08000,
,,,0.000057740000,  11.08000,
,,,0.000057760000,  11.12000,
,,,0.000057780000,  11.12000,
,,,0.000057800000,  11.12000,
,,,0.000057820000,  11.16000,
,,,0.000057840000,  11.20000,
,,,0.000057860000,  11.20000,
,,,0.000057880000,  11.20000,
,,,0.000057900000,  11.20000,
,,,0.000057920000,  11.28000,
,,,0.000057940000,  11.24000,
,,,0.000057960000,  11.28000,
,,,0.000057980000,  11.28000,
,,,0.000058000000,  11.36000,
,,,0.000058020000,  11.32000,
,,,0.000058040000,  11.32000,
,,,0.000058060000,  11.32000,
,,,0.000058080000,  11.40000,
,,,0.000058100000,  11.40000,
,,,0.000058120000,  11.40000,
,,,0.000058140000,  11.40000,
,,,0.000058160000,  11.44000,
,,,0.000058180000,  11.48000,
,,,0.000058200000,  11.48000,
,,,0.000058220000,  11.44000,
,,,0.000058240000,  11.48000,
,,,0.000058260000,  11.52000,
,,,0.000058280000,  11.52000,
,,,0.000058300000,  11.52000,
,,,0.000058320000,  11.56000,
,,,0.000058340000,  11.56000,
,,,0.000058360000,  11.56000,
,,,0.000058380000,  11.60000,
,,,0.000058400000,  11.60000,
,,,0.000058420000,  11.60000,
,,,0.000058440000,  11.68000,
,,,0.000058460000,  11.60000,
,,,0.000058480000,  11.60000,
,,,0.000058500000,  11.68000,
,,,0.000058520000,  11.64000,
,,,0.000058540000,  11.72000,
,,,0.000058560000,  11.68000,
,,,0.000058580000,  11.68000,
,,,0.000058600000,  11.72000,
,,,0.000058620000,  11.72000,
,,,0.000058640000,  11.76000,
,,,0.000058660000,  11.72000,
,,,0.000058680000,  11.76000,
,,,0.000058700000,  11.76000,
,,,0.000058720000,  11.76000,
,,,0.000058740000,  11.76000,
,,,0.000058760000,  11.80000,
,,,0.000058780000,  11.84000,
,,,0.000058800000,  11.84000,
,,,0.000058820000,  11.84000,
,,,0.000058840000,  11.84000,
,,,0.000058860000,  11.88000,
,,,0.000058880000,  11.88000,
,,,0.000058900000,  11.84000,
,,,0.000058920000,  11.88000,
,,,0.000058940000,  11.92000,
,,,0.000058960000,  11.96000,
,,,0.000058980000,  11.92000,
,,,0.000059000000,  11.88000,
,,,0.000059020000,  11.92000,
,,,0.000059040000,  11.88000,
,,,0.000059060000,  11.96000,
,,,0.000059080000,  11.92000,
,,,0.000059100000,  11.96000,
,,,0.000059120000,  11.96000,
,,,0.000059140000,  12.00000,
,,,0.000059160000,  12.00000,
,,,0.000059180000,  12.00000,
,,,0.000059200000,  12.00000,
,,,0.000059220000,  12.04000,
,,,0.000059240000,  12.00000,
,,,0.000059260000,  12.00000,
,,,0.000059280000,  12.00000,
,,,0.000059300000,  12.08000,
,,,0.000059320000,  12.08000,
,,,0.000059340000,  12.04000,
,,,0.000059360000,  12.00000,
,,,0.000059380000,  12.08000,
,,,0.000059400000,  12.08000,
,,,0.000059420000,  12.08000,
,,,0.000059440000,  12.04000,
,,,0.000059460000,  12.08000,
,,,0.000059480000,  12.08000,
,,,0.000059500000,  12.12000,
,,,0.000059520000,  12.08000,
,,,0.000059540000,  12.12000,
,,,0.000059560000,  12.12000,
,,,0.000059580000,  12.12000,
,,,0.000059600000,  12.12000,
,,,0.000059620000,  12.08000,
,,,0.000059640000,  12.12000,
,,,0.000059660000,  12.20000,
,,,0.000059680000,  12.16000,
,,,0.000059700000,  12.16000,
,,,0.000059720000,  12.20000,
,,,0.000059740000,  12.16000,
,,,0.000059760000,  12.20000,
,,,0.000059780000,  12.16000,
,,,0.000059800000,  12.20000,
,,,0.000059820000,  12.20000,
,,,0.000059840000,  12.12000,
,,,0.000059860000,  12.12000,
,,,0.000059880000,  12.20000,
,,,0.000059900000,  12.20000,
,,,0.000059920000,  12.24000,
,,,0.000059940000,  12.20000,
,,,0.000059960000,  12.24000,
,,,0.000059980000,  12.24000,
,,,0.000060000000,  12.20000,
,,,0.000060020000,  12.20000,
,,,0.000060040000,  12.28000,
,,,0.000060060000,  12.28000,
,,,0.000060080000,  12.28000,
,,,0.000060100000,  12.28000,
,,,0.000060120000,  12.28000,
,,,0.000060140000,  12.20000,
,,,0.000060160000,  12.28000,
,,,0.000060180000,  12.28000,
,,,0.000060200000,  12.20000,
,,,0.000060220000,  12.24000,
,,,0.000060240000,  12.24000,
,,,0.000060260000,  12.28000,
,,,0.000060280000,  12.28000,
,,,0.000060300000,  12.28000,
,,,0.000060320000,  12.28000,
,,,0.000060340000,  12.28000,
,,,0.000060360000,  12.28000,
,,,0.000060380000,  12.24000,
,,,0.000060400000,  12.28000,
,,,0.000060420000,  12.28000,
,,,0.000060440000,  12.32000,
,,,0.000060460000,  12.32000,
,,,0.000060480000,  12.28000,
,,,0.000060500000,  12.28000,
,,,0.000060520000,  12.32000,
,,,0.000060540000,  12.36000,
,,,0.000060560000,  12.32000,
,,,0.000060580000,  12.32000,
,,,0.000060600000,  12.32000,
,,,0.000060620000,  12.32000,
,,,0.000060640000,  12.32000,
,,,0.000060660000,  12.36000,
,,,0.000060680000,  12.36000,
,,,0.000060700000,  12.32000,
,,,0.000060720000,  12.36000,
,,,0.000060740000,  12.40000,
,,,0.000060760000,  12.32000,
,,,0.000060780000,  12.32000,
,,,0.000060800000,  12.36000,
,,,0.000060820000,  12.36000,
,,,0.000060840000,  12.36000,
,,,0.000060860000,  12.32000,
,,,0.000060880000,  12.36000,
,,,0.000060900000,  12.32000,
,,,0.000060920000,  12.32000,
,,,0.000060940000,  12.40000,
,,,0.000060960000,  12.36000,
,,,0.000060980000,  12.32000,
,,,0.000061000000,  12.36000,
,,,0.000061020000,  12.36000,
,,,0.000061040000,  12.40000,
,,,0.000061060000,  12.36000,
,,,0.000061080000,  12.36000,
,,,0.000061100000,  12.36000,
,,,0.000061120000,  12.40000,
,,,0.000061140000,  12.40000,
,,,0.000061160000,  12.36000,
,,,0.000061180000,  12.40000,
,,,0.000061200000,  12.24000,
,,,0.000061220000,  12.64000,
,,,0.000061240000,  12.16000,
,,,0.000061260000,  12.64000,
,,,0.000061280000,  12.36000,
,,,0.000061300000,  12.40000,
,,,0.000061320000,  12.48000,
,,,0.000061340000,  12.56000,
,,,0.000061360000,  12.40000,
,,,0.000061380000,  12.40000,
,,,0.000061400000,  12.28000,
,,,0.000061420000,  12.28000,
,,,0.000061440000,  12.28000,
,,,0.000061460000,  12.40000,
,,,0.000061480000,  12.44000,
,,,0.000061500000,  12.36000,
,,,0.000061520000,  12.32000,
,,,0.000061540000,  12.32000,
,,,0.000061560000,  12.44000,
,,,0.000061580000,  12.36000,
,,,0.000061600000,  12.44000,
,,,0.000061620000,  12.44000,
,,,0.000061640000,  12.40000,
,,,0.000061660000,  12.32000,
,,,0.000061680000,  12.36000,
,,,0.000061700000,  12.40000,
,,,0.000061720000,  12.44000,
,,,0.000061740000,  12.40000,
,,,0.000061760000,  12.36000,
,,,0.000061780000,  12.36000,
,,,0.000061800000,  12.40000,
,,,0.000061820000,  12.36000,
,,,0.000061840000,  12.40000,
,,,0.000061860000,  12.40000,
,,,0.000061880000,  12.36000,
,,,0.000061900000,  12.36000,
,,,0.000061920000,  12.36000,
,,,0.000061940000,  12.36000,
,,,0.000061960000,  12.40000,
,,,0.000061980000,  12.44000,
,,,0.000062000000,  12.36000,
,,,0.000062020000,  12.32000,
,,,0.000062040000,  12.36000,
,,,0.000062060000,  12.36000,
,,,0.000062080000,  12.40000,
,,,0.000062100000,  12.36000,
,,,0.000062120000,  12.36000,
,,,0.000062140000,  12.32000,
,,,0.000062160000,  12.36000,
,,,0.000062180000,  12.36000,
,,,0.000062200000,  12.32000,
,,,0.000062220000,  12.36000,
,,,0.000062240000,  12.36000,
,,,0.000062260000,  12.36000,
,,,0.000062280000,  12.36000,
,,,0.000062300000,  12.32000,
,,,0.000062320000,  12.28000,
,,,0.000062340000,  12.32000,
,,,0.000062360000,  12.32000,
,,,0.000062380000,  12.32000,
,,,0.000062400000,  12.36000,
,,,0.000062420000,  12.36000,
,,,0.000062440000,  12.32000,
,,,0.000062460000,  12.36000,
,,,0.000062480000,  12.36000,
,,,0.000062500000,  12.36000,
,,,0.000062520000,  12.32000,
,,,0.000062540000,  12.32000,
,,,0.000062560000,  12.32000,
,,,0.000062580000,  12.32000,
,,,0.000062600000,  12.36000,
,,,0.000062620000,  12.36000,
,,,0.000062640000,  12.32000,
,,,0.000062660000,  12.36000,
,,,0.000062680000,  12.32000,
,,,0.000062700000,  12.32000,
,,,0.000062720000,  12.28000,
,,,0.000062740000,  12.32000,
,,,0.000062760000,  12.32000,
,,,0.000062780000,  12.32000,
,,,0.000062800000,  12.32000,
,,,0.000062820000,  12.32000,
,,,0.000062840000,  12.32000,
,,,0.000062860000,  12.28000,
,,,0.000062880000,  12.28000,
,,,0.000062900000,  12.28000,
,,,0.000062920000,  12.32000,
,,,0.000062940000,  12.32000,
,,,0.000062960000,  12.32000,
,,,0.000062980000,  12.28000,
,,,0.000063000000,  12.28000,
,,,0.000063020000,  12.32000,
,,,0.000063040000,  12.32000,
,,,0.000063060000,  12.28000,
,,,0.000063080000,  12.32000,
,,,0.000063100000,  12.28000,
,,,0.000063120000,  12.24000,
,,,0.000063140000,  12.24000,
,,,0.000063160000,  12.28000,
,,,0.000063180000,  12.24000,
,,,0.000063200000,  12.24000,
,,,0.000063220000,  12.24000,
,,,0.000063240000,  12.20000,
,,,0.000063260000,  12.24000,
,,,0.000063280000,  12.28000,
,,,0.000063300000,  12.28000,
,,,0.000063320000,  12.24000,
,,,0.000063340000,  12.24000,
,,,0.000063360000,  12.24000,
,,,0.000063380000,  12.28000,
,,,0.000063400000,  12.16000,
,,,0.000063420000,  12.20000,
,,,0.000063440000,  12.28000,
,,,0.000063460000,  12.20000,
,,,0.000063480000,  12.20000,
,,,0.000063500000,  12.16000,
,,,0.000063520000,  12.24000,
,,,0.000063540000,  12.20000,
,,,0.000063560000,  12.20000,
,,,0.000063580000,  12.20000,
,,,0.000063600000,  12.16000,
,,,0.000063620000,  12.20000,
,,,0.000063640000,  12.16000,
,,,0.000063660000,  12.24000,
,,,0.000063680000,  12.20000,
,,,0.000063700000,  12.16000,
,,,0.000063720000,  12.20000,
,,,0.000063740000,  12.16000,
,,,0.000063760000,  12.16000,
,,,0.000063780000,  12.20000,
,,,0.000063800000,  12.16000,
,,,0.000063820000,  12.12000,
,,,0.000063840000,  12.16000,
,,,0.000063860000,  12.20000,
,,,0.000063880000,  12.12000,
,,,0.000063900000,  12.16000,
,,,0.000063920000,  12.12000,
,,,0.000063940000,  12.12000,
,,,0.000063960000,  12.12000,
,,,0.000063980000,  12.20000,
,,,0.000064000000,  12.16000,
,,,0.000064020000,  12.16000,
,,,0.000064040000,  12.16000,
,,,0.000064060000,  12.12000,
,,,0.000064080000,  12.12000,
,,,0.000064100000,  12.08000,
,,,0.000064120000,  12.12000,
,,,0.000064140000,  12.08000,
,,,0.000064160000,  12.08000,
,,,0.000064180000,  12.04000,
,,,0.000064200000,  12.08000,
,,,0.000064220000,  12.12000,
,,,0.000064240000,  12.08000,
,,,0.000064260000,  12.08000,
,,,0.000064280000,  12.08000,
,,,0.000064300000,  12.00000,
,,,0.000064320000,  12.04000,
,,,0.000064340000,  12.04000,
,,,0.000064360000,  12.04000,
,,,0.000064380000,  12.04000,
,,,0.000064400000,  12.08000,
,,,0.000064420000,  12.08000,
,,,0.000064440000,  12.08000,
,,,0.000064460000,  12.04000,
,,,0.000064480000,  12.08000,
,,,0.000064500000,  12.08000,
,,,0.000064520000,  12.04000,
,,,0.000064540000,  12.04000,
,,,0.000064560000,  12.04000,
,,,0.000064580000,  12.04000,
,,,0.000064600000,  12.04000,
,,,0.000064620000,  12.04000,
,,,0.000064640000,  12.04000,
,,,0.000064660000,  12.00000,
