F08/data/ALL0021/F0021CH1.CSV

Record Length,2.500000e+03,,  -0.000005600000, -42.00000,
Sample Interval,4.000000e-08,,  -0.000005560000, -42.00000,
Trigger Point,1.400000000000e+02,,  -0.000005520000, -42.00000,
,,,  -0.000005480000, -42.00000,
,,,  -0.000005440000, -44.00000,
,,,  -0.000005400000, -44.00000,
Source,CH1,,  -0.000005360000, -40.00000,
Vertical Units,V,,  -0.000005320000, -42.00000,
Vertical Scale,5.000000e+01,,  -0.000005280000, -44.00000,
Vertical Offset,1.040000e+02,,  -0.000005240000, -42.00000,
Horizontal Units,s,,  -0.000005200000, -42.00000,
Horizontal Scale,1.000000e-05,,  -0.000005160000, -44.00000,
Pt Fmt,Y,,  -0.000005120000, -42.00000,
Yzero,0.000000e+00,,  -0.000005080000, -42.00000,
Probe Atten,1.000000e+01,,  -0.000005040000, -44.00000,
Model Number,TDS1001B,,  -0.000005000000, -40.00000,
Serial Number,C052131,,  -0.000004960000, -42.00000,
Firmware Version,FV:v22.01,,  -0.000004920000, -44.00000,
,,,-00.000004880000, -42.00000,
,,,-00.000004840000, -42.00000,
,,,-00.000004800000, -44.00000,
,,,-00.000004760000, -40.00000,
,,,-00.000004720000, -42.00000,
,,,-00.000004680000, -42.00000,
,,,-00.000004640000, -44.00000,
,,,-00.000004600000, -44.00000,
,,,-00.000004560000, -44.00000,
,,,-00.000004520000, -44.00000,
,,,-00.000004480000, -40.00000,
,,,-00.000004440000, -42.00000,
,,,-00.000004400000, -44.00000,
,,,-00.000004360000, -44.00000,
,,,-00.000004320000, -42.00000,
,,,-00.000004280000, -40.00000,
,,,-00.000004240000, -40.00000,
,,,-00.000004200000, -40.00000,
,,,-00.000004160000, -42.00000,
,,,-00.000004120000, -42.00000,
,,,-00.000004080000, -44.00000,
,,,-00.000004040000, -42.00000,
,,,-00.000004000000, -42.00000,
,,,-00.000003960000, -42.00000,
,,,-00.000003920000, -40.00000,
,,,-00.000003880000, -42.00000,
,,,-00.000003840000, -42.00000,
,,,-00.000003800000, -44.00000,
,,,-00.000003760000, -42.00000,
,,,-00.000003720000, -42.00000,
,,,-00.000003680000, -44.00000,
,,,-00.000003640000, -42.00000,
,,,-00.000003600000, -42.00000,
,,,-00.000003560000, -44.00000,
,,,-00.000003520000, -44.00000,
,,,-00.000003480000, -42.00000,
,,,-00.000003440000, -42.00000,
,,,-00.000003400000, -40.00000,
,,,-00.000003360000, -44.00000,
,,,-00.000003320000, -44.00000,
,,,-00.000003280000, -42.00000,
,,,-00.000003240000, -44.00000,
,,,-00.000003200000, -40.00000,
,,,-00.000003160000, -42.00000,
,,,-00.000003120000, -40.00000,
,,,-00.000003080000, -42.00000,
,,,-00.000003040000, -42.00000,
,,,-00.000003000000, -42.00000,
,,,-00.000002960000, -40.00000,
,,,-00.000002920000, -42.00000,
,,,-00.000002880000, -42.00000,
,,,-00.000002840000, -42.00000,
,,,-00.000002800000, -40.00000,
,,,-00.000002760000, -44.00000,
,,,-00.000002720000, -42.00000,
,,,-00.000002680000, -40.00000,
,,,-00.000002640000, -44.00000,
,,,-00.000002600000, -42.00000,
,,,-00.000002560000, -42.00000,
,,,-00.000002520000, -44.00000,
,,,-00.000002480000, -42.00000,
,,,-00.000002440000, -42.00000,
,,,-00.000002400000, -42.00000,
,,,-00.000002360000, -42.00000,
,,,-00.000002320000, -42.00000,
,,,-00.000002280000, -42.00000,
,,,-00.000002240000, -40.00000,
,,,-00.000002200000, -42.00000,
,,,-00.000002160000, -42.00000,
,,,-00.000002120000, -40.00000,
,,,-00.000002080000, -44.00000,
,,,-00.000002040000, -42.00000,
,,,-00.000002000000, -44.00000,
,,,-00.000001960000, -40.00000,
,,,-00.000001920000, -44.00000,
,,,-00.000001880000, -40.00000,
,,,-00.000001840000, -42.00000,
,,,-00.000001800000, -42.00000,
,,,-00.000001760000, -40.00000,
,,,-00.000001720000, -44.00000,
,,,-00.000001680000, -42.00000,
,,,-00.000001640000, -40.00000,
,,,-00.000001600000, -42.00000,
,,,-00.000001560000, -42.00000,
,,,-00.000001520000, -40.00000,
,,,-00.000001480000, -40.00000,
,,,-00.000001440000, -42.00000,
,,,-00.000001400000, -40.00000,
,,,-00.000001360000, -42.00000,
,,,-00.000001320000, -40.00000,
,,,-00.000001280000, -40.00000,
,,,-00.000001240000, -40.00000,
,,,-00.000001200000, -42.00000,
,,,-00.000001160000, -42.00000,
,,,-00.000001120000, -44.00000,
,,,-00.000001080000, -40.00000,
,,,-00.000001040000, -40.00000,
,,,-00.000001000000, -42.00000,
,,,-00.000000960000, -44.00000,
,,,-00.000000920000, -40.00000,
,,,-00.000000880000, -44.00000,
,,,-00.000000840000, -42.00000,
,,,-00.000000800000, -42.00000,
,,,-00.000000760000, -40.00000,
,,,-00.000000720000, -42.00000,
,,,-00.000000680000, -44.00000,
,,,-00.000000640000, -40.00000,
,,,-00.000000600000, -44.00000,
,,,-00.000000560000, -40.00000,
,,,-00.000000520000, -40.00000,
,,,-00.000000480000, -42.00000,
,,,-00.000000440000, -44.00000,
,,,-00.000000400000, -46.00000,
,,,-00.000000360000, -42.00000,
,,,-00.000000320000, -42.00000,
,,,-00.000000280000, -40.00000,
,,,-00.000000240000, -40.00000,
,,,-00.000000200000, -42.00000,
,,,-00.000000160000, -40.00000,
,,,-00.000000120000, -44.00000,
,,,-00.000000080000, -44.00000,
,,,-00.000000040000, -42.00000,
,,,-00.000000000000, -44.00000,
,,,00.000000040000, -42.00000,
,,,00.000000080000, -42.00000,
,,,00.000000120000, -42.00000,
,,,00.000000160000, -42.00000,
,,,00.000000200000, -26.00000,
,,,00.000000240000,  30.00000,
,,,00.000000280000,  36.00000,
,,,00.000000320000,  40.00000,
,,,00.000000360000,  40.00000,
,,,00.000000400000,  40.00000,
,,,00.000000440000,  40.00000,
,,,00.000000480000,  44.00000,
,,,00.000000520000,  42.00000,
,,,00.000000560000,  42.00000,
,,,00.000000600000,  42.00000,
,,,00.000000640000,  40.00000,
,,,00.000000680000,  42.00000,
,,,00.000000720000,  40.00000,
,,,00.000000760000,  42.00000,
,,,00.000000800000,  42.00000,
,,,00.000000840000,  42.00000,
,,,00.000000880000,  42.00000,
,,,00.000000920000,  40.00000,
,,,00.000000960000,  42.00000,
,,,00.000001000000,  42.00000,
,,,00.000001040000,  42.00000,
,,,00.000001080000,  42.00000,
,,,00.000001120000,  44.00000,
,,,00.000001160000,  42.00000,
,,,00.000001200000,  42.00000,
,,,00.000001240000,  40.00000,
,,,00.000001280000,  42.00000,
,,,00.000001320000,  42.00000,
,,,00.000001360000,  44.00000,
,,,00.000001400000,  42.00000,
,,,00.000001440000,  40.00000,
,,,00.000001480000,  40.00000,
,,,00.000001520000,  42.00000,
,,,00.000001560000,  44.00000,
,,,00.000001600000,  42.00000,
,,,00.000001640000,  40.00000,
,,,00.000001680000,  42.00000,
,,,00.000001720000,  42.00000,
,,,00.000001760000,  40.00000,
,,,00.000001800000,  42.00000,
,,,00.000001840000,  42.00000,
,,,00.000001880000,  40.00000,
,,,00.000001920000,  42.00000,
,,,00.000001960000,  40.00000,
,,,00.000002000000,  42.00000,
,,,00.000002040000,  40.00000,
,,,00.000002080000,  44.00000,
,,,00.000002120000,  42.00000,
,,,00.000002160000,  44.00000,
,,,00.000002200000,  44.00000,
,,,00.000002240000,  40.00000,
,,,00.000002280000,  42.00000,
,,,00.000002320000,  44.00000,
,,,00.000002360000,  42.00000,
,,,00.000002400000,  44.00000,
,,,00.000002440000,  44.00000,
,,,00.000002480000,  44.00000,
,,,00.000002520000,  42.00000,
,,,00.000002560000,  44.00000,
,,,00.000002600000,  42.00000,
,,,00.000002640000,  42.00000,
,,,00.000002680000,  42.00000,
,,,00.000002720000,  44.00000,
,,,00.000002760000,  42.00000,
,,,00.000002800000,  42.00000,
,,,00.000002840000,  42.00000,
,,,00.000002880000,  44.00000,
,,,00.000002920000,  42.00000,
,,,00.000002960000,  40.00000,
,,,00.000003000000,  42.00000,
,,,00.000003040000,  42.00000,
,,,00.000003080000,  40.00000,
,,,00.000003120000,  42.00000,
,,,00.000003160000,  42.00000,
,,,00.000003200000,  42.00000,
,,,00.000003240000,  42.00000,
,,,00.000003280000,  42.00000,
,,,00.000003320000,  42.00000,
,,,00.000003360000,  40.00000,
,,,00.000003400000,  42.00000,
,,,00.000003440000,  44.00000,
,,,00.000003480000,  42.00000,
,,,00.000003520000,  42.00000,
,,,00.000003560000,  42.00000,
,,,00.000003600000,  42.00000,
,,,00.000003640000,  44.00000,
,,,00.000003680000,  44.00000,
,,,00.000003720000,  44.00000,
,,,00.000003760000,  42.00000,
,,,00.000003800000,  44.00000,
,,,00.000003840000,  42.00000,
,,,00.000003880000,  40.00000,
,,,00.000003920000,  40.00000,
,,,00.000003960000,  40.00000,
,,,00.000004000000,  44.00000,
,,,00.000004040000,  42.00000,
,,,00.000004080000,  42.00000,
,,,00.000004120000,  42.00000,
,,,00.000004160000,  40.00000,
,,,00.000004200000,  42.00000,
,,,00.000004240000,  44.00000,
,,,00.000004280000,  44.00000,
,,,00.000004320000,  42.00000,
,,,00.000004360000,  42.00000,
,,,00.000004400000,  40.00000,
,,,00.000004440000,  42.00000,
,,,00.000004480000,  44.00000,
,,,00.000004520000,  40.00000,
,,,00.000004560000,  42.00000,
,,,00.000004600000,  42.00000,
,,,00.000004640000,  42.00000,
,,,00.000004680000,  42.00000,
,,,00.000004720000,  42.00000,
,,,00.000004760000,  42.00000,
,,,00.000004800000,  42.00000,
,,,00.000004840000,  42.00000,
,,,00.000004880000,  42.00000,
,,,00.000004920000,  44.00000,
,,,00.000004960000,  44.00000,
,,,00.000005000000,  42.00000,
,,,00.000005040000,  42.00000,
,,,00.000005080000,  42.00000,
,,,00.000005120000,  42.00000,
,,,00.000005160000,  42.00000,
,,,00.000005200000,  40.00000,
,,,00.000005240000,  42.00000,
,,,00.000005280000,  42.00000,
,,,00.000005320000,  44.00000,
,,,00.000005360000,  42.00000,
,,,00.000005400000,  42.00000,
,,,00.000005440000,  42.00000,
,,,00.000005480000,  42.00000,
,,,00.000005520000,  44.00000,
,,,00.000005560000,  42.00000,
,,,00.000005600000,  42.00000,
,,,00.000005640000,  44.00000,
,,,00.000005680000,  44.00000,
,,,00.000005720000,  42.00000,
,,,00.000005760000,  42.00000,
,,,00.000005800000,  46.00000,
,,,00.000005840000,  42.00000,
,,,00.000005880000,  42.00000,
,,,00.000005920000,  42.00000,
,,,00.000005960000,  44.00000,
,,,00.000006000000,  44.00000,
,,,00.000006040000,  42.00000,
,,,00.000006080000,  44.00000,
,,,00.000006120000,  46.00000,
,,,00.000006160000,  44.00000,
,,,00.000006200000,  40.00000,
,,,00.000006240000,  42.00000,
,,,00.000006280000,  44.00000,
,,,00.000006320000,  42.00000,
,,,00.000006360000,  44.00000,
,,,00.000006400000,  44.00000,
,,,00.000006440000,  42.00000,
,,,00.000006480000,  42.00000,
,,,00.000006520000,  44.00000,
,,,00.000006560000,  44.00000,
,,,00.000006600000,  44.00000,
,,,00.000006640000,  44.00000,
,,,00.000006680000,  44.00000,
,,,00.000006720000,  40.00000,
,,,00.000006760000,  42.00000,
,,,00.000006800000,  44.00000,
,,,00.000006840000,  44.00000,
,,,00.000006880000,  44.00000,
,,,00.000006920000,  44.00000,
,,,00.000006960000,  42.00000,
,,,00.000007000000,  44.00000,
,,,00.000007040000,  44.00000,
,,,00.000007080000,  44.00000,
,,,00.000007120000,  46.00000,
,,,00.000007160000,  46.00000,
,,,00.000007200000,  42.00000,
,,,00.000007240000,  42.00000,
,,,00.000007280000,  42.00000,
,,,00.000007320000,  38.00000,
,,,00.000007360000,  44.00000,
,,,00.000007400000,  46.00000,
,,,00.000007440000,  44.00000,
,,,00.000007480000,  46.00000,
,,,00.000007520000,  44.00000,
,,,00.000007560000,  44.00000,
,,,00.000007600000,  44.00000,
,,,00.000007640000,  44.00000,
,,,00.000007680000,  46.00000,
,,,00.000007720000,  46.00000,
,,,00.000007760000,  42.00000,
,,,00.000007800000,  42.00000,
,,,00.000007840000,  42.00000,
,,,00.000007880000,  42.00000,
,,,00.000007920000,  42.00000,
,,,00.000007960000,  44.00000,
,,,00.000008000000,  44.00000,
,,,00.000008040000,  44.00000,
,,,00.000008080000,  42.00000,
,,,00.000008120000,  44.00000,
,,,00.000008160000,  44.00000,
,,,00.000008200000,  42.00000,
,,,00.000008240000,  42.00000,
,,,00.000008280000,  42.00000,
,,,00.000008320000,  42.00000,
,,,00.000008360000,  42.00000,
,,,00.000008400000,  44.00000,
,,,00.000008440000,  44.00000,
,,,00.000008480000,  44.00000,
,,,00.000008520000,  42.00000,
,,,00.000008560000,  44.00000,
,,,00.000008600000,  42.00000,
,,,00.000008640000,  42.00000,
,,,00.000008680000,  44.00000,
,,,00.000008720000,  46.00000,
,,,00.000008760000,  42.00000,
,,,00.000008800000,  44.00000,
,,,00.000008840000,  42.00000,
,,,00.000008880000,  42.00000,
,,,00.000008920000,  44.00000,
,,,00.000008960000,  44.00000,
,,,00.000009000000,  44.00000,
,,,00.000009040000,  46.00000,
,,,00.000009080000,  44.00000,
,,,00.000009120000,  40.00000,
,,,00.000009160000,  42.00000,
,,,00.000009200000,  42.00000,
,,,00.000009240000,  44.00000,
,,,00.000009280000,  46.00000,
,,,00.000009320000,  44.00000,
,,,00.000009360000,  42.00000,
,,,00.000009400000,  40.00000,
,,,00.000009440000,  42.00000,
,,,00.000009480000,  44.00000,
,,,00.000009520000,  44.00000,
,,,00.000009560000,  44.00000,
,,,00.000009600000,  44.00000,
,,,00.000009640000,  42.00000,
,,,00.000009680000,  40.00000,
,,,00.000009720000,  42.00000,
,,,00.000009760000,  44.00000,
,,,00.000009800000,  44.00000,
,,,00.000009840000,  44.00000,
,,,00.000009880000,  42.00000,
,,,00.000009920000,  42.00000,
,,,00.000009960000,  42.00000,
,,,00.000010000000,  44.00000,
,,,00.000010040000,  44.00000,
,,,00.000010080000,  46.00000,
,,,00.000010120000,  44.00000,
,,,00.000010160000,  44.00000,
,,,00.000010200000,  44.00000,
,,,00.000010240000,  44.00000,
,,,00.000010280000,  42.00000,
,,,00.000010320000,  46.00000,
,,,00.000010360000,  44.00000,
,,,00.000010400000,  44.00000,
,,,00.000010440000,  42.00000,
,,,00.000010480000,  44.00000,
,,,00.000010520000,  44.00000,
,,,00.000010560000,  44.00000,
,,,00.000010600000,  44.00000,
,,,00.000010640000,  44.00000,
,,,00.000010680000,  42.00000,
,,,00.000010720000,  40.00000,
,,,00.000010760000,  42.00000,
,,,00.000010800000,  42.00000,
,,,00.000010840000,  46.00000,
,,,00.000010880000,  44.00000,
,,,00.000010920000,  42.00000,
,,,00.000010960000,  42.00000,
,,,00.000011000000,  42.00000,
,,,00.000011040000,  44.00000,
,,,00.000011080000,  44.00000,
,,,00.000011120000,  44.00000,
,,,00.000011160000,  44.00000,
,,,00.000011200000,  40.00000,
,,,00.000011240000,  44.00000,
,,,00.000011280000,  42.00000,
,,,00.000011320000,  44.00000,
,,,00.000011360000,  44.00000,
,,,00.000011400000,  44.00000,
,,,00.000011440000,  42.00000,
,,,00.000011480000,  42.00000,
,,,00.000011520000,  44.00000,
,,,00.000011560000,  42.00000,
,,,00.000011600000,  42.00000,
,,,00.000011640000,  46.00000,
,,,00.000011680000,  46.00000,
,,,00.000011720000,  42.00000,
,,,00.000011760000,  42.00000,
,,,00.000011800000,  44.00000,
,,,00.000011840000,  44.00000,
,,,00.000011880000,  42.00000,
,,,00.000011920000,  44.00000,
,,,00.000011960000,  44.00000,
,,,00.000012000000,  42.00000,
,,,00.000012040000,  42.00000,
,,,00.000012080000,  44.00000,
,,,00.000012120000,  44.00000,
,,,00.000012160000,  44.00000,
,,,00.000012200000,  40.00000,
,,,00.000012240000,  42.00000,
,,,00.000012280000,  44.00000,
,,,00.000012320000,  42.00000,
,,,00.000012360000,  44.00000,
,,,00.000012400000,  44.00000,
,,,00.000012440000,  44.00000,
,,,00.000012480000,  42.00000,
,,,00.000012520000,  40.00000,
,,,00.000012560000,  44.00000,
,,,00.000012600000,  40.00000,
,,,00.000012640000,  46.00000,
,,,00.000012680000,  44.00000,
,,,00.000012720000,  44.00000,
,,,00.000012760000,  42.00000,
,,,00.000012800000,  40.00000,
,,,00.000012840000,  42.00000,
,,,00.000012880000,  44.00000,
,,,00.000012920000,  44.00000,
,,,00.000012960000,  44.00000,
,,,00.000013000000,  44.00000,
,,,00.000013040000,  44.00000,
,,,00.000013080000,  42.00000,
,,,00.000013120000,  42.00000,
,,,00.000013160000,  44.00000,
,,,00.000013200000,  42.00000,
,,,00.000013240000,  44.00000,
,,,00.000013280000,  44.00000,
,,,00.000013320000,  42.00000,
,,,00.000013360000,  42.00000,
,,,00.000013400000,  42.00000,
,,,00.000013440000,  44.00000,
,,,00.000013480000,  42.00000,
,,,00.000013520000,  44.00000,
,,,00.000013560000,  42.00000,
,,,00.000013600000,  46.00000,
,,,00.000013640000,  40.00000,
,,,00.000013680000,  44.00000,
,,,00.000013720000,  44.00000,
,,,00.000013760000,  42.00000,
,,,00.000013800000,  44.00000,
,,,00.000013840000,  42.00000,
,,,00.000013880000,  44.00000,
,,,00.000013920000,  42.00000,
,,,00.000013960000,  40.00000,
,,,00.000014000000,  44.00000,
,,,00.000014040000,  46.00000,
,,,00.000014080000,  46.00000,
,,,00.000014120000,  44.00000,
,,,00.000014160000,  44.00000,
,,,00.000014200000,  44.00000,
,,,00.000014240000,  44.00000,
,,,00.000014280000,  44.00000,
,,,00.000014320000,  44.00000,
,,,00.000014360000,  44.00000,
,,,00.000014400000,  42.00000,
,,,00.000014440000,  44.00000,
,,,00.000014480000,  44.00000,
,,,00.000014520000,  44.00000,
,,,00.000014560000,  46.00000,
,,,00.000014600000,  44.00000,
,,,00.000014640000,  44.00000,
,,,00.000014680000,  42.00000,
,,,00.000014720000,  42.00000,
,,,00.000014760000,  44.00000,
,,,00.000014800000,  46.00000,
,,,00.000014840000,  44.00000,
,,,00.000014880000,  42.00000,
,,,00.000014920000,  44.00000,
,,,00.000014960000,  40.00000,
,,,00.000015000000,  44.00000,
,,,00.000015040000,  44.00000,
,,,00.000015080000,  42.00000,
,,,00.000015120000,  44.00000,
,,,00.000015160000,  42.00000,
,,,00.000015200000,  44.00000,
,,,00.000015240000,  42.00000,
,,,00.000015280000,  42.00000,
,,,00.000015320000,  46.00000,
,,,00.000015360000,  44.00000,
,,,00.000015400000,  44.00000,
,,,00.000015440000,  42.00000,
,,,00.000015480000,  42.00000,
,,,00.000015520000,  44.00000,
,,,00.000015560000,  44.00000,
,,,00.000015600000,  44.00000,
,,,00.000015640000,  44.00000,
,,,00.000015680000,  42.00000,
,,,00.000015720000,  42.00000,
,,,00.000015760000,  42.00000,
,,,00.000015800000,  44.00000,
,,,00.000015840000,  44.00000,
,,,00.000015880000,  44.00000,
,,,00.000015920000,  44.00000,
,,,00.000015960000,  44.00000,
,,,00.000016000000,  42.00000,
,,,00.000016040000,  46.00000,
,,,00.000016080000,  44.00000,
,,,00.000016120000,  44.00000,
,,,00.000016160000,  44.00000,
,,,00.000016200000,  44.00000,
,,,00.000016240000,  42.00000,
,,,00.000016280000,  44.00000,
,,,00.000016320000,  46.00000,
,,,00.000016360000,  44.00000,
,,,00.000016400000,  44.00000,
,,,00.000016440000,  42.00000,
,,,00.000016480000,  44.00000,
,,,00.000016520000,  42.00000,
,,,00.000016560000,  42.00000,
,,,00.000016600000,  44.00000,
,,,00.000016640000,  46.00000,
,,,00.000016680000,  44.00000,
,,,00.000016720000,  42.00000,
,,,00.000016760000,  40.00000,
,,,00.000016800000,  44.00000,
,,,00.000016840000,  44.00000,
,,,00.000016880000,  44.00000,
,,,00.000016920000,  44.00000,
,,,00.000016960000,  44.00000,
,,,00.000017000000,  44.00000,
,,,00.000017040000,  44.00000,
,,,00.000017080000,  42.00000,
,,,00.000017120000,  44.00000,
,,,00.000017160000,  44.00000,
,,,00.000017200000,  44.00000,
,,,00.000017240000,  44.00000,
,,,00.000017280000,  44.00000,
,,,00.000017320000,  40.00000,
,,,00.000017360000,  46.00000,
,,,00.000017400000,  44.00000,
,,,00.000017440000,  44.00000,
,,,00.000017480000,  42.00000,
,,,00.000017520000,  44.00000,
,,,00.000017560000,  42.00000,
,,,00.000017600000,  42.00000,
,,,00.000017640000,  42.00000,
,,,00.000017680000,  44.00000,
,,,00.000017720000,  44.00000,
,,,00.000017760000,  44.00000,
,,,00.000017800000,  42.00000,
,,,00.000017840000,  42.00000,
,,,00.000017880000,  42.00000,
,,,00.000017920000,  44.00000,
,,,00.000017960000,  44.00000,
,,,00.000018000000,  44.00000,
,,,00.000018040000,  44.00000,
,,,00.000018080000,  42.00000,
,,,00.000018120000,  44.00000,
,,,00.000018160000,  44.00000,
,,,00.000018200000,  46.00000,
,,,00.000018240000,  44.00000,
,,,00.000018280000,  44.00000,
,,,00.000018320000,  46.00000,
,,,00.000018360000,  42.00000,
,,,00.000018400000,  42.00000,
,,,00.000018440000,  44.00000,
,,,00.000018480000,  44.00000,
,,,00.000018520000,  46.00000,
,,,00.000018560000,  44.00000,
,,,00.000018600000,  44.00000,
,,,00.000018640000,  42.00000,
,,,00.000018680000,  44.00000,
,,,00.000018720000,  46.00000,
,,,00.000018760000,  44.00000,
,,,00.000018800000,  44.00000,
,,,00.000018840000,  42.00000,
,,,00.000018880000,  42.00000,
,,,00.000018920000,  42.00000,
,,,00.000018960000,  40.00000,
,,,00.000019000000,  44.00000,
,,,00.000019040000,  44.00000,
,,,00.000019080000,  42.00000,
,,,00.000019120000,  42.00000,
,,,00.000019160000,  44.00000,
,,,00.000019200000,  40.00000,
,,,00.000019240000,  44.00000,
,,,00.000019280000,  46.00000,
,,,00.000019320000,  46.00000,
,,,00.000019360000,  44.00000,
,,,00.000019400000,  44.00000,
,,,00.000019440000,  42.00000,
,,,00.000019480000,  44.00000,
,,,00.000019520000,  44.00000,
