F08/data/ALL0015/F0015CH2.CSV

Record Length,2.500000e+03,,   0.003282000000,   0.24000,
Sample Interval,4.000000e-08,,   0.003282040000,   0.24000,
Trigger Point,-8.205000000000e+04,,   0.003282080000,   0.24000,
,,,   0.003282120000,   0.24000,
,,,   0.003282160000,   0.28000,
,,,   0.003282200000,   0.24000,
Source,CH2,,   0.003282240000,   0.28000,
Vertical Units,V,,   0.003282280000,   0.24000,
Vertical Scale,1.000000e+00,,   0.003282320000,   0.24000,
Vertical Offset,-3.400000e+00,,   0.003282360000,   0.28000,
Horizontal Units,s,,   0.003282400000,   0.24000,
Horizontal Scale,1.000000e-05,,   0.003282440000,   0.24000,
Pt Fmt,Y,,   0.003282480000,   0.24000,
Yzero,0.000000e+00,,   0.003282520000,   0.28000,
Probe Atten,1.000000e+01,,   0.003282560000,   0.28000,
Model Number,TDS1001B,,   0.003282600000,   0.24000,
Serial Number,C052131,,   0.003282640000,   0.20000,
Firmware Version,FV:v22.01,,   0.003282680000,   0.24000,
,,,0.003282720000,   0.24000,
,,,0.003282760000,   0.28000,
,,,0.003282800000,   0.24000,
,,,0.003282840000,   0.28000,
,,,0.003282880000,   0.28000,
,,,0.003282920000,   0.28000,
,,,0.003282960000,   0.24000,
,,,0.003283000000,   0.32000,
,,,0.003283040000,   0.28000,
,,,0.003283080000,   0.28000,
,,,0.003283120000,   0.20000,
,,,0.003283160000,   0.24000,
,,,0.003283200000,   0.24000,
,,,0.003283240000,   0.24000,
,,,0.003283280000,   0.24000,
,,,0.003283320000,   0.32000,
,,,0.003283360000,   0.24000,
,,,0.003283400000,   0.24000,
,,,0.003283440000,   0.28000,
,,,0.003283480000,   0.28000,
,,,0.003283520000,   0.24000,
,,,0.003283560000,   0.28000,
,,,0.003283600000,   0.28000,
,,,0.003283640000,   0.28000,
,,,0.003283680000,   0.28000,
,,,0.003283720000,   0.24000,
,,,0.003283760000,   0.28000,
,,,0.003283800000,   0.28000,
,,,0.003283840000,   0.24000,
,,,0.003283880000,   0.28000,
,,,0.003283920000,   0.24000,
,,,0.003283960000,   0.28000,
,,,0.003284000000,   0.24000,
,,,0.003284040000,   0.24000,
,,,0.003284080000,   0.28000,
,,,0.003284120000,   0.28000,
,,,0.003284160000,   0.24000,
,,,0.003284200000,   0.24000,
,,,0.003284240000,   0.28000,
,,,0.003284280000,   0.28000,
,,,0.003284320000,   0.24000,
,,,0.003284360000,   0.24000,
,,,0.003284400000,   0.28000,
,,,0.003284440000,   0.24000,
,,,0.003284480000,   0.24000,
,,,0.003284520000,   0.28000,
,,,0.003284560000,   0.28000,
,,,0.003284600000,   0.24000,
,,,0.003284640000,   0.24000,
,,,0.003284680000,   0.28000,
,,,0.003284720000,   0.24000,
,,,0.003284760000,   0.24000,
,,,0.003284800000,   0.28000,
,,,0.003284840000,   0.24000,
,,,0.003284880000,   0.24000,
,,,0.003284920000,   0.24000,
,,,0.003284960000,   0.24000,
,,,0.003285000000,   0.24000,
,,,0.003285040000,   0.20000,
,,,0.003285080000,   0.24000,
,,,0.003285120000,   0.24000,
,,,0.003285160000,   0.28000,
,,,0.003285200000,   0.28000,
,,,0.003285240000,   0.24000,
,,,0.003285280000,   0.32000,
,,,0.003285320000,   0.24000,
,,,0.003285360000,   0.24000,
,,,0.003285400000,   0.24000,
,,,0.003285440000,   0.28000,
,,,0.003285480000,   0.28000,
,,,0.003285520000,   0.32000,
,,,0.003285560000,   0.28000,
,,,0.003285600000,   0.24000,
,,,0.003285640000,   0.28000,
,,,0.003285680000,   0.24000,
,,,0.003285720000,   0.24000,
,,,0.003285760000,   0.24000,
,,,0.003285800000,   0.24000,
,,,0.003285840000,   0.28000,
,,,0.003285880000,   0.24000,
,,,0.003285920000,   0.24000,
,,,0.003285960000,   0.24000,
,,,0.003286000000,   0.28000,
,,,0.003286040000,   0.28000,
,,,0.003286080000,   0.24000,
,,,0.003286120000,   0.28000,
,,,0.003286160000,   0.24000,
,,,0.003286200000,   0.28000,
,,,0.003286240000,   0.28000,
,,,0.003286280000,   0.28000,
,,,0.003286320000,   0.24000,
,,,0.003286360000,   0.24000,
,,,0.003286400000,   0.24000,
,,,0.003286440000,   0.24000,
,,,0.003286480000,   0.24000,
,,,0.003286520000,   0.24000,
,,,0.003286560000,   0.28000,
,,,0.003286600000,   0.20000,
,,,0.003286640000,   0.24000,
,,,0.003286680000,   0.28000,
,,,0.003286720000,   0.28000,
,,,0.003286760000,   0.28000,
,,,0.003286800000,   0.28000,
,,,0.003286840000,   0.28000,
,,,0.003286880000,   0.28000,
,,,0.003286920000,   0.24000,
,,,0.003286960000,   0.24000,
,,,0.003287000000,   0.28000,
,,,0.003287040000,   0.28000,
,,,0.003287080000,   0.28000,
,,,0.003287120000,   0.24000,
,,,0.003287160000,   0.24000,
,,,0.003287200000,   0.24000,
,,,0.003287240000,   0.28000,
,,,0.003287280000,   0.28000,
,,,0.003287320000,   0.24000,
,,,0.003287360000,   0.28000,
,,,0.003287400000,   0.28000,
,,,0.003287440000,   0.24000,
,,,0.003287480000,   0.24000,
,,,0.003287520000,   0.24000,
,,,0.003287560000,   0.24000,
,,,0.003287600000,   0.24000,
,,,0.003287640000,   0.24000,
,,,0.003287680000,   0.24000,
,,,0.003287720000,   0.28000,
,,,0.003287760000,   0.24000,
,,,0.003287800000,   0.28000,
,,,0.003287840000,   0.24000,
,,,0.003287880000,   0.28000,
,,,0.003287920000,   0.32000,
,,,0.003287960000,   0.28000,
,,,0.003288000000,   0.24000,
,,,0.003288040000,   0.28000,
,,,0.003288080000,   0.32000,
,,,0.003288120000,   0.28000,
,,,0.003288160000,   0.28000,
,,,0.003288200000,   0.28000,
,,,0.003288240000,   0.24000,
,,,0.003288280000,   0.24000,
,,,0.003288320000,   0.24000,
,,,0.003288360000,   0.28000,
,,,0.003288400000,   0.28000,
,,,0.003288440000,   0.24000,
,,,0.003288480000,   0.28000,
,,,0.003288520000,   0.24000,
,,,0.003288560000,   0.24000,
,,,0.003288600000,   0.24000,
,,,0.003288640000,   0.24000,
,,,0.003288680000,   0.24000,
,,,0.003288720000,   0.28000,
,,,0.003288760000,   0.24000,
,,,0.003288800000,   0.28000,
,,,0.003288840000,   0.28000,
,,,0.003288880000,   0.24000,
,,,0.003288920000,   0.24000,
,,,0.003288960000,   0.28000,
,,,0.003289000000,   0.24000,
,,,0.003289040000,   0.28000,
,,,0.003289080000,   0.24000,
,,,0.003289120000,   0.24000,
,,,0.003289160000,   0.32000,
,,,0.003289200000,   0.24000,
,,,0.003289240000,   0.28000,
,,,0.003289280000,   0.28000,
,,,0.003289320000,   0.24000,
,,,0.003289360000,   0.28000,
,,,0.003289400000,   0.20000,
,,,0.003289440000,   0.28000,
,,,0.003289480000,   0.28000,
,,,0.003289520000,   0.24000,
,,,0.003289560000,   0.24000,
,,,0.003289600000,   0.24000,
,,,0.003289640000,   0.20000,
,,,0.003289680000,   0.24000,
,,,0.003289720000,   0.24000,
,,,0.003289760000,   0.20000,
,,,0.003289800000,   0.24000,
,,,0.003289840000,   0.20000,
,,,0.003289880000,   0.28000,
,,,0.003289920000,   0.28000,
,,,0.003289960000,   0.24000,
,,,0.003290000000,   0.24000,
,,,0.003290040000,   0.24000,
,,,0.003290080000,   0.24000,
,,,0.003290120000,   0.24000,
,,,0.003290160000,   0.24000,
,,,0.003290200000,   0.24000,
,,,0.003290240000,   0.24000,
,,,0.003290280000,   0.24000,
,,,0.003290320000,   0.24000,
,,,0.003290360000,   0.28000,
,,,0.003290400000,   0.24000,
,,,0.003290440000,   0.28000,
,,,0.003290480000,   0.24000,
,,,0.003290520000,   0.24000,
,,,0.003290560000,   0.24000,
,,,0.003290600000,   0.24000,
,,,0.003290640000,   0.28000,
,,,0.003290680000,   0.24000,
,,,0.003290720000,   0.24000,
,,,0.003290760000,   0.28000,
,,,0.003290800000,   0.28000,
,,,0.003290840000,   0.28000,
,,,0.003290880000,   0.28000,
,,,0.003290920000,   0.20000,
,,,0.003290960000,   0.24000,
,,,0.003291000000,   0.28000,
,,,0.003291040000,   0.28000,
,,,0.003291080000,   0.20000,
,,,0.003291120000,   0.24000,
,,,0.003291160000,   0.24000,
,,,0.003291200000,   0.28000,
,,,0.003291240000,   0.28000,
,,,0.003291280000,   0.24000,
,,,0.003291320000,   0.24000,
,,,0.003291360000,   0.24000,
,,,0.003291400000,   0.28000,
,,,0.003291440000,   0.28000,
,,,0.003291480000,   0.28000,
,,,0.003291520000,   0.32000,
,,,0.003291560000,   0.32000,
,,,0.003291600000,   0.24000,
,,,0.003291640000,   0.28000,
,,,0.003291680000,   0.28000,
,,,0.003291720000,   0.28000,
,,,0.003291760000,   0.28000,
,,,0.003291800000,   0.28000,
,,,0.003291840000,   0.28000,
,,,0.003291880000,   0.28000,
,,,0.003291920000,   0.24000,
,,,0.003291960000,   0.24000,
,,,0.003292000000,   0.24000,
,,,0.003292040000,   0.24000,
,,,0.003292080000,   0.24000,
,,,0.003292120000,   0.28000,
,,,0.003292160000,   0.28000,
,,,0.003292200000,   0.28000,
,,,0.003292240000,   0.24000,
,,,0.003292280000,   0.28000,
,,,0.003292320000,   0.24000,
,,,0.003292360000,   0.24000,
,,,0.003292400000,   0.28000,
,,,0.003292440000,   0.24000,
,,,0.003292480000,   0.28000,
,,,0.003292520000,   0.24000,
,,,0.003292560000,   0.24000,
,,,0.003292600000,   0.24000,
,,,0.003292640000,   0.24000,
,,,0.003292680000,   0.32000,
,,,0.003292720000,   0.28000,
,,,0.003292760000,   0.24000,
,,,0.003292800000,   0.24000,
,,,0.003292840000,   0.24000,
,,,0.003292880000,   0.24000,
,,,0.003292920000,   0.24000,
,,,0.003292960000,   0.28000,
,,,0.003293000000,   0.28000,
,,,0.003293040000,   0.28000,
,,,0.003293080000,   0.28000,
,,,0.003293120000,   0.28000,
,,,0.003293160000,   0.24000,
,,,0.003293200000,   0.24000,
,,,0.003293240000,   0.28000,
,,,0.003293280000,   0.24000,
,,,0.003293320000,   0.24000,
,,,0.003293360000,   0.24000,
,,,0.003293400000,   0.28000,
,,,0.003293440000,   0.24000,
,,,0.003293480000,   0.28000,
,,,0.003293520000,   0.24000,
,,,0.003293560000,   0.24000,
,,,0.003293600000,   0.28000,
,,,0.003293640000,   0.28000,
,,,0.003293680000,   0.28000,
,,,0.003293720000,   0.24000,
,,,0.003293760000,   0.24000,
,,,0.003293800000,   0.24000,
,,,0.003293840000,   0.24000,
,,,0.003293880000,   0.28000,
,,,0.003293920000,   0.24000,
,,,0.003293960000,   0.32000,
,,,0.003294000000,   0.24000,
,,,0.003294040000,   0.28000,
,,,0.003294080000,   0.24000,
,,,0.003294120000,   0.24000,
,,,0.003294160000,   0.28000,
,,,0.003294200000,   0.28000,
,,,0.003294240000,   0.28000,
,,,0.003294280000,   0.28000,
,,,0.003294320000,   0.24000,
,,,0.003294360000,   0.24000,
,,,0.003294400000,   0.24000,
,,,0.003294440000,   0.28000,
,,,0.003294480000,   0.24000,
,,,0.003294520000,   0.24000,
,,,0.003294560000,   0.28000,
,,,0.003294600000,   0.24000,
,,,0.003294640000,   0.32000,
,,,0.003294680000,   0.24000,
,,,0.003294720000,   0.28000,
,,,0.003294760000,   0.28000,
,,,0.003294800000,   0.28000,
,,,0.003294840000,   0.24000,
,,,0.003294880000,   0.28000,
,,,0.003294920000,   0.24000,
,,,0.003294960000,   0.28000,
,,,0.003295000000,   0.28000,
,,,0.003295040000,   0.32000,
,,,0.003295080000,   0.28000,
,,,0.003295120000,   0.24000,
,,,0.003295160000,   0.24000,
,,,0.003295200000,   0.32000,
,,,0.003295240000,   0.28000,
,,,0.003295280000,   0.28000,
,,,0.003295320000,   0.32000,
,,,0.003295360000,   0.24000,
,,,0.003295400000,   0.24000,
,,,0.003295440000,   0.28000,
,,,0.003295480000,   0.28000,
,,,0.003295520000,   0.28000,
,,,0.003295560000,   0.28000,
,,,0.003295600000,   0.24000,
,,,0.003295640000,   0.24000,
,,,0.003295680000,   0.28000,
,,,0.003295720000,   0.28000,
,,,0.003295760000,   0.28000,
,,,0.003295800000,   0.32000,
,,,0.003295840000,   0.28000,
,,,0.003295880000,   0.24000,
,,,0.003295920000,   0.24000,
,,,0.003295960000,   0.24000,
,,,0.003296000000,   0.24000,
,,,0.003296040000,   0.28000,
,,,0.003296080000,   0.32000,
,,,0.003296120000,   0.28000,
,,,0.003296160000,   0.32000,
,,,0.003296200000,   0.28000,
,,,0.003296240000,   0.24000,
,,,0.003296280000,   0.28000,
,,,0.003296320000,   0.28000,
,,,0.003296360000,   0.24000,
,,,0.003296400000,   0.28000,
,,,0.003296440000,   0.24000,
,,,0.003296480000,   0.24000,
,,,0.003296520000,   0.32000,
,,,0.003296560000,   0.24000,
,,,0.003296600000,   0.28000,
,,,0.003296640000,   0.28000,
,,,0.003296680000,   0.28000,
,,,0.003296720000,   0.24000,
,,,0.003296760000,   0.20000,
,,,0.003296800000,   0.28000,
,,,0.003296840000,   0.28000,
,,,0.003296880000,   0.28000,
,,,0.003296920000,   0.24000,
,,,0.003296960000,   0.28000,
,,,0.003297000000,   0.24000,
,,,0.003297040000,   0.28000,
,,,0.003297080000,   0.28000,
,,,0.003297120000,   0.28000,
,,,0.003297160000,   0.24000,
,,,0.003297200000,   0.24000,
,,,0.003297240000,   0.24000,
,,,0.003297280000,   0.20000,
,,,0.003297320000,   0.20000,
,,,0.003297360000,   0.20000,
,,,0.003297400000,   0.20000,
,,,0.003297440000,   0.20000,
,,,0.003297480000,   0.16000,
,,,0.003297520000,   0.12000,
,,,0.003297560000,   0.16000,
,,,0.003297600000,   0.16000,
,,,0.003297640000,   0.12000,
,,,0.003297680000,   0.16000,
,,,0.003297720000,   0.16000,
,,,0.003297760000,   0.16000,
,,,0.003297800000,   0.24000,
,,,0.003297840000,   0.24000,
,,,0.003297880000,   0.36000,
,,,0.003297920000,   0.44000,
,,,0.003297960000,   0.48000,
,,,0.003298000000,   0.64000,
,,,0.003298040000,   0.76000,
,,,0.003298080000,   1.00000,
,,,0.003298120000,   1.16000,
,,,0.003298160000,   1.36000,
,,,0.003298200000,   1.56000,
,,,0.003298240000,   1.76000,
,,,0.003298280000,   1.92000,
,,,0.003298320000,   2.16000,
,,,0.003298360000,   2.40000,
,,,0.003298400000,   2.56000,
,,,0.003298440000,   2.72000,
,,,0.003298480000,   2.92000,
,,,0.003298520000,   3.08000,
,,,0.003298560000,   3.24000,
,,,0.003298600000,   3.36000,
,,,0.003298640000,   3.44000,
,,,0.003298680000,   3.60000,
,,,0.003298720000,   3.68000,
,,,0.003298760000,   3.80000,
,,,0.003298800000,   3.84000,
,,,0.003298840000,   4.00000,
,,,0.003298880000,   3.96000,
,,,0.003298920000,   4.04000,
,,,0.003298960000,   4.08000,
,,,0.003299000000,   4.08000,
,,,0.003299040000,   4.16000,
,,,0.003299080000,   4.16000,
,,,0.003299120000,   4.20000,
,,,0.003299160000,   4.24000,
,,,0.003299200000,   4.24000,
,,,0.003299240000,   4.16000,
,,,0.003299280000,   4.16000,
,,,0.003299320000,   4.20000,
,,,0.003299360000,   4.12000,
,,,0.003299400000,   4.12000,
,,,0.003299440000,   4.16000,
,,,0.003299480000,   4.08000,
,,,0.003299520000,   4.08000,
,,,0.003299560000,   4.04000,
,,,0.003299600000,   4.08000,
,,,0.003299640000,   3.96000,
,,,0.003299680000,   3.96000,
,,,0.003299720000,   3.92000,
,,,0.003299760000,   3.92000,
,,,0.003299800000,   3.88000,
,,,0.003299840000,   3.80000,
,,,0.003299880000,   3.72000,
,,,0.003299920000,   3.72000,
,,,0.003299960000,   3.72000,
,,,0.003300000000,   3.64000,
,,,0.003300040000,   3.60000,
,,,0.003300080000,   3.64000,
,,,0.003300120000,   3.56000,
,,,0.003300160000,   3.48000,
,,,0.003300200000,   3.44000,
,,,0.003300240000,   3.44000,
,,,0.003300280000,   3.40000,
,,,0.003300320000,   3.32000,
,,,0.003300360000,   3.32000,
,,,0.003300400000,   3.28000,
,,,0.003300440000,   3.20000,
,,,0.003300480000,   3.20000,
,,,0.003300520000,   3.12000,
,,,0.003300560000,   3.12000,
,,,0.003300600000,   3.08000,
,,,0.003300640000,   3.04000,
,,,0.003300680000,   3.00000,
,,,0.003300720000,   2.96000,
,,,0.003300760000,   2.92000,
,,,0.003300800000,   2.92000,
,,,0.003300840000,   2.88000,
,,,0.003300880000,   2.84000,
,,,0.003300920000,   2.88000,
,,,0.003300960000,   2.76000,
,,,0.003301000000,   2.80000,
,,,0.003301040000,   2.72000,
,,,0.003301080000,   2.72000,
,,,0.003301120000,   2.64000,
,,,0.003301160000,   2.64000,
,,,0.003301200000,   2.60000,
,,,0.003301240000,   2.56000,
,,,0.003301280000,   2.52000,
,,,0.003301320000,   2.52000,
,,,0.003301360000,   2.48000,
,,,0.003301400000,   2.48000,
,,,0.003301440000,   2.40000,
,,,0.003301480000,   2.40000,
,,,0.003301520000,   2.44000,
,,,0.003301560000,   2.36000,
,,,0.003301600000,   2.32000,
,,,0.003301640000,   2.32000,
,,,0.003301680000,   2.28000,
,,,0.003301720000,   2.24000,
,,,0.003301760000,   2.24000,
,,,0.003301800000,   2.20000,
,,,0.003301840000,   2.20000,
,,,0.003301880000,   2.20000,
,,,0.003301920000,   2.16000,
,,,0.003301960000,   2.16000,
,,,0.003302000000,   2.12000,
,,,0.003302040000,   2.08000,
,,,0.003302080000,   2.04000,
,,,0.003302120000,   2.04000,
,,,0.003302160000,   2.04000,
,,,0.003302200000,   2.00000,
,,,0.003302240000,   2.00000,
,,,0.003302280000,   1.96000,
,,,0.003302320000,   1.96000,
,,,0.003302360000,   1.96000,
,,,0.003302400000,   1.92000,
,,,0.003302440000,   1.88000,
,,,0.003302480000,   1.92000,
,,,0.003302520000,   1.88000,
,,,0.003302560000,   1.88000,
,,,0.003302600000,   1.84000,
,,,0.003302640000,   1.84000,
,,,0.003302680000,   1.84000,
,,,0.003302720000,   1.80000,
,,,0.003302760000,   1.80000,
,,,0.003302800000,   1.76000,
,,,0.003302840000,   1.84000,
,,,0.003302880000,   1.76000,
,,,0.003302920000,   1.72000,
,,,0.003302960000,   1.72000,
,,,0.003303000000,   1.72000,
,,,0.003303040000,   1.68000,
,,,0.003303080000,   1.68000,
,,,0.003303120000,   1.68000,
,,,0.003303160000,   1.64000,
,,,0.003303200000,   1.64000,
,,,0.003303240000,   1.64000,
,,,0.003303280000,   1.60000,
,,,0.003303320000,   1.60000,
,,,0.003303360000,   1.56000,
,,,0.003303400000,   1.56000,
,,,0.003303440000,   1.56000,
,,,0.003303480000,   1.52000,
,,,0.003303520000,   1.52000,
,,,0.003303560000,   1.52000,
,,,0.003303600000,   1.52000,
,,,0.003303640000,   1.52000,
,,,0.003303680000,   1.52000,
,,,0.003303720000,   1.48000,
,,,0.003303760000,   1.52000,
,,,0.003303800000,   1.48000,
,,,0.003303840000,   1.44000,
,,,0.003303880000,   1.44000,
,,,0.003303920000,   1.44000,
,,,0.003303960000,   1.40000,
,,,0.003304000000,   1.44000,
,,,0.003304040000,   1.44000,
,,,0.003304080000,   1.40000,
,,,0.003304120000,   1.40000,
,,,0.003304160000,   1.40000,
,,,0.003304200000,   1.36000,
,,,0.003304240000,   1.36000,
,,,0.003304280000,   1.36000,
,,,0.003304320000,   1.32000,
,,,0.003304360000,   1.32000,
,,,0.003304400000,   1.32000,
,,,0.003304440000,   1.28000,
,,,0.003304480000,   1.32000,
,,,0.003304520000,   1.36000,
,,,0.003304560000,   1.32000,
,,,0.003304600000,   1.24000,
,,,0.003304640000,   1.24000,
,,,0.003304680000,   1.24000,
,,,0.003304720000,   1.24000,
,,,0.003304760000,   1.28000,
,,,0.003304800000,   1.28000,
,,,0.003304840000,   1.20000,
,,,0.003304880000,   1.24000,
,,,0.003304920000,   1.20000,
,,,0.003304960000,   1.20000,
,,,0.003305000000,   1.28000,
,,,0.003305040000,   1.24000,
,,,0.003305080000,   1.20000,
,,,0.003305120000,   1.20000,
,,,0.003305160000,   1.24000,
,,,0.003305200000,   1.20000,
,,,0.003305240000,   1.20000,
,,,0.003305280000,   1.20000,
,,,0.003305320000,   1.16000,
,,,0.003305360000,   1.20000,
,,,0.003305400000,   1.16000,
,,,0.003305440000,   1.16000,
,,,0.003305480000,   1.16000,
,,,0.003305520000,   1.12000,
,,,0.003305560000,   1.16000,
,,,0.003305600000,   1.16000,
,,,0.003305640000,   1.12000,
,,,0.003305680000,   1.16000,
,,,0.003305720000,   1.16000,
,,,0.003305760000,   1.16000,
,,,0.003305800000,   1.16000,
,,,0.003305840000,   1.20000,
,,,0.003305880000,   1.16000,
,,,0.003305920000,   1.16000,
,,,0.003305960000,   1.16000,
,,,0.003306000000,   1.20000,
,,,0.003306040000,   1.20000,
,,,0.003306080000,   1.20000,
,,,0.003306120000,   1.20000,
,,,0.003306160000,   1.24000,
,,,0.003306200000,   1.24000,
,,,0.003306240000,   1.28000,
,,,0.003306280000,   1.28000,
,,,0.003306320000,   1.28000,
,,,0.003306360000,   1.32000,
,,,0.003306400000,   1.32000,
,,,0.003306440000,   1.36000,
,,,0.003306480000,   1.40000,
,,,0.003306520000,   1.44000,
,,,0.003306560000,   1.44000,
,,,0.003306600000,   1.48000,
,,,0.003306640000,   1.56000,
,,,0.003306680000,   1.60000,
,,,0.003306720000,   1.60000,
,,,0.003306760000,   1.68000,
,,,0.003306800000,   1.72000,
,,,0.003306840000,   1.72000,
,,,0.003306880000,   1.80000,
,,,0.003306920000,   1.80000,
,,,0.003306960000,   1.88000,
,,,0.003307000000,   1.96000,
,,,0.003307040000,   2.00000,
,,,0.003307080000,   2.08000,
,,,0.003307120000,   2.08000,
,,,0.003307160000,   2.16000,
,,,0.003307200000,   2.20000,
,,,0.003307240000,   2.24000,
,,,0.003307280000,   2.28000,
,,,0.003307320000,   2.36000,
,,,0.003307360000,   2.40000,
,,,0.003307400000,   2.44000,
,,,0.003307440000,   2.48000,
,,,0.003307480000,   2.48000,
,,,0.003307520000,   2.56000,
,,,0.003307560000,   2.52000,
,,,0.003307600000,   2.60000,
,,,0.003307640000,   2.60000,
,,,0.003307680000,   2.64000,
,,,0.003307720000,   2.64000,
,,,0.003307760000,   2.68000,
,,,0.003307800000,   2.64000,
,,,0.003307840000,   2.72000,
,,,0.003307880000,   2.68000,
,,,0.003307920000,   2.72000,
,,,0.003307960000,   2.76000,
,,,0.003308000000,   2.72000,
,,,0.003308040000,   2.80000,
,,,0.003308080000,   2.72000,
,,,0.003308120000,   2.76000,
